<svg xmlns="http://www.w3.org/2000/svg" width="312" height="138.615" viewBox="0 0 312 138.615">
  <g id="logo" transform="translate(-571 -185.385)">
    <g id="Group_41" data-name="Group 41" transform="translate(689 185.385)">
      <path id="Path_199" data-name="Path 199" d="M1178.242,545.18a33.007,33.007,0,0,1-6.211,16.476,73.173,73.173,0,0,1-14.455,14.989c-5,4.054-10.338,7.678-15.533,11.48a14.381,14.381,0,0,1-1.582.859c-3.53-2.4-6.912-4.693-10.5-7.123a1.341,1.341,0,0,0-.157-.1.011.011,0,0,1,.01-.01c2.064-1.32,3.97-2.43,5.75-3.708,4.085-2.922,8.265-5.74,12.109-8.945a80.3,80.3,0,0,0,11.48-11.4c2.6-3.247,4.944-6.526,5.74-10.663a12.3,12.3,0,0,0-.021-4.954,2.31,2.31,0,0,0-.083-.366c-1.425-5.74-7.186-9.354-13.9-7.688a20.607,20.607,0,0,0-10.024,5.876c-2-1.4-3.885-2.922-5.97-4.127a14.317,14.317,0,0,0-9.217-2.063,10.961,10.961,0,0,0-9.542,12.234,10.612,10.612,0,0,0,.209,1.152c.859,4.158,3.195,7.468,5.939,10.569,1.55,1.76,3.142,3.509,4.934,5.51,4.189-2.744,8.159-5.342,12.223-8,2.5,1.739,5.1,3.551,7.677,5.352.021.01.032.021.053.032-1.833,3.352-17.6,14.978-22.415,17.031a.531.531,0,0,0-.073.031h-.011l-.146-.136c-2.65-2.44-5.415-4.944-8.128-7.5a48.07,48.07,0,0,1-8.746-10.757,38.573,38.573,0,0,1-2.357-4.755c-2.923-7.018-3.456-14.088-.031-21.137a19,19,0,0,1,2.388-3.708l.01-.011c4.85-5.918,13.271-9.479,20.708-8.264a32.855,32.855,0,0,1,6.473,1.666,56.487,56.487,0,0,1,6.012,3.131,24.124,24.124,0,0,1,15.754-5,23.387,23.387,0,0,1,16.958,8.463,20.449,20.449,0,0,1,4.671,11.459c.021.3.042.6.053.9a29.674,29.674,0,0,1-.053,3.2Z" transform="translate(-1102.898 -521.114)" fill="#fff"/>
      <path id="Path_200" data-name="Path 200" d="M1146.134,558.74c.021.01.031.021.052.031-1.833,3.352-17.6,14.978-22.415,17.031l-.031-.021C1128.432,573.823,1144.112,562.228,1146.134,558.74Z" transform="translate(-1101.909 -519.329)" fill="#fff"/>
      <path id="Path_201" data-name="Path 201" d="M1164.17,541.156c-1.425-5.74-7.185-9.353-13.9-7.688a20.605,20.605,0,0,0-10.024,5.876c-2-1.4-3.886-2.922-5.97-4.127a14.316,14.316,0,0,0-9.217-2.063,10.986,10.986,0,0,0-9.029,7.311,10.969,10.969,0,0,1,7.929-7.311c.377-.084.755-.157,1.142-.21a14.33,14.33,0,0,1,9.2,2.074c2.073,1.2,3.959,2.734,5.96,4.137a20.659,20.659,0,0,1,10-5.9C1157.026,531.572,1162.829,535.29,1164.17,541.156Z" transform="translate(-1102.275 -520.557)" fill="#fff"/>
    </g>
    <text id="RealAfroDate" transform="translate(571 309)" fill="#fff" font-size="55" font-family="PTSansPro-Bold, PT Sans Pro" font-weight="700"><tspan x="0" y="0">RealAfroDate</tspan></text>
  </g>
</svg>
