<svg xmlns="http://www.w3.org/2000/svg" width="208.903" height="202.039" viewBox="0 0 208.903 202.039">
  <g id="More_Likes_vector" data-name="More Likes_vector" transform="translate(-44.721 -42.525)">
    <g id="Group_72" data-name="Group 72" transform="translate(44.722 42.525)">
      <g id="Group_62" data-name="Group 62" transform="translate(0 6.428)">
        <path id="Path_210" data-name="Path 210" d="M292.537,74.416l1.244,2.275a.243.243,0,0,0,.1.1l2.274,1.244a.244.244,0,0,1,0,.427L293.878,79.7a.244.244,0,0,0-.1.1l-1.244,2.274a.244.244,0,0,1-.427,0L290.866,79.8a.247.247,0,0,0-.1-.1l-2.274-1.244a.243.243,0,0,1,0-.427l2.274-1.244a.246.246,0,0,0,.1-.1l1.244-2.275A.244.244,0,0,1,292.537,74.416Z" transform="translate(-166.712 -64.857)" fill="#00a1b3" opacity="0.2"/>
        <path id="Path_211" data-name="Path 211" d="M441.587,214.6l1.244,2.274a.244.244,0,0,0,.1.1l2.274,1.244a.244.244,0,0,1,0,.427l-2.274,1.244a.244.244,0,0,0-.1.1l-1.244,2.274a.244.244,0,0,1-.427,0l-1.244-2.274a.245.245,0,0,0-.1-.1l-2.274-1.244a.243.243,0,0,1,0-.427l2.274-1.244a.244.244,0,0,0,.1-.1l1.244-2.274A.244.244,0,0,1,441.587,214.6Z" transform="translate(-241.34 -135.046)" fill="#00a1b3" opacity="0.2"/>
        <path id="Path_212" data-name="Path 212" d="M69.619,165.9l1.244,2.274a.248.248,0,0,0,.1.1l2.274,1.244a.244.244,0,0,1,0,.427l-2.274,1.244a.244.244,0,0,0-.1.1l-1.244,2.274a.244.244,0,0,1-.427,0l-1.244-2.274a.248.248,0,0,0-.1-.1l-2.274-1.244a.243.243,0,0,1,0-.427l2.274-1.244a.251.251,0,0,0,.1-.1l1.244-2.274A.243.243,0,0,1,69.619,165.9Z" transform="translate(-55.1 -110.662)" fill="#00a1b3" opacity="0.2"/>
        <path id="Path_213" data-name="Path 213" d="M72.332,299.253l1.244,2.274a.241.241,0,0,0,.1.1l2.274,1.244a.243.243,0,0,1,0,.427l-2.274,1.244a.238.238,0,0,0-.1.1l-1.244,2.274a.243.243,0,0,1-.427,0l-1.244-2.274a.238.238,0,0,0-.1-.1L68.289,303.3a.244.244,0,0,1,0-.427l2.274-1.244a.241.241,0,0,0,.1-.1l1.244-2.274A.244.244,0,0,1,72.332,299.253Z" transform="translate(-56.458 -177.431)" fill="#00a1b3" opacity="0.2"/>
        <path id="Path_214" data-name="Path 214" d="M388.652,127.361l.786,1.437a.152.152,0,0,0,.061.061l1.437.786a.154.154,0,0,1,0,.27l-1.437.786a.152.152,0,0,0-.061.061l-.786,1.437a.154.154,0,0,1-.27,0l-.785-1.437a.153.153,0,0,0-.061-.061l-1.437-.786a.154.154,0,0,1,0-.27l1.437-.786a.153.153,0,0,0,.061-.061l.785-1.437A.154.154,0,0,1,388.652,127.361Z" transform="translate(-215.605 -91.39)" fill="#00a1b3" opacity="0.2"/>
        <path id="Path_215" data-name="Path 215" d="M406.891,317.99l.786,1.437a.157.157,0,0,0,.061.061l1.437.785a.154.154,0,0,1,0,.27l-1.437.786a.155.155,0,0,0-.061.061l-.786,1.437a.154.154,0,0,1-.27,0l-.785-1.437a.157.157,0,0,0-.061-.061l-1.437-.786a.154.154,0,0,1,0-.27l1.437-.785a.158.158,0,0,0,.061-.061l.785-1.437A.154.154,0,0,1,406.891,317.99Z" transform="translate(-224.737 -186.835)" fill="#00a1b3" opacity="0.2"/>
        <path id="Path_216" data-name="Path 216" d="M104.32,55.48l.786,1.437a.152.152,0,0,0,.061.061l1.437.786a.153.153,0,0,1,0,.27l-1.437.786a.152.152,0,0,0-.061.061l-.786,1.437a.154.154,0,0,1-.27,0l-.785-1.437a.155.155,0,0,0-.061-.061l-1.437-.786a.153.153,0,0,1,0-.27l1.437-.786a.155.155,0,0,0,.061-.061l.785-1.437A.154.154,0,0,1,104.32,55.48Z" transform="translate(-73.243 -55.4)" fill="#00a1b3" opacity="0.2"/>
        <path id="Path_217" data-name="Path 217" d="M47.355,221.08l.786,1.437a.155.155,0,0,0,.061.061l1.437.786a.154.154,0,0,1,0,.27l-1.437.785a.157.157,0,0,0-.061.061l-.786,1.437a.154.154,0,0,1-.27,0L46.3,224.48a.158.158,0,0,0-.061-.061l-1.437-.785a.154.154,0,0,1,0-.27l1.437-.786a.157.157,0,0,0,.061-.061l.785-1.437A.154.154,0,0,1,47.355,221.08Z" transform="translate(-44.722 -138.313)" fill="#00a1b3" opacity="0.2"/>
      </g>
      <g id="Group_70" data-name="Group 70" transform="translate(0.154)">
        <g id="Group_63" data-name="Group 63" transform="translate(151.912 13.188)" opacity="0.2">
          <path id="Path_218" data-name="Path 218" d="M354.116,78.626a4.844,4.844,0,1,1,4.844-4.844A4.849,4.849,0,0,1,354.116,78.626Zm0-8.33a3.486,3.486,0,1,0,3.486,3.486A3.49,3.49,0,0,0,354.116,70.3Z" transform="translate(-349.272 -68.938)" fill="#00a1b3"/>
        </g>
        <g id="Group_64" data-name="Group 64" transform="translate(1.666 9.024)" opacity="0.2">
          <path id="Path_219" data-name="Path 219" d="M53.21,70.285a4.844,4.844,0,1,1,4.844-4.844A4.849,4.849,0,0,1,53.21,70.285Zm0-8.33A3.486,3.486,0,1,0,56.7,65.441,3.49,3.49,0,0,0,53.21,61.955Z" transform="translate(-48.366 -60.597)" fill="#00a1b3"/>
        </g>
        <g id="Group_65" data-name="Group 65" transform="translate(0 151.516)" opacity="0.2">
          <path id="Path_220" data-name="Path 220" d="M49.873,355.663a4.844,4.844,0,1,1,4.844-4.844A4.85,4.85,0,0,1,49.873,355.663Zm0-8.33a3.486,3.486,0,1,0,3.486,3.486A3.49,3.49,0,0,0,49.873,347.333Z" transform="translate(-45.029 -345.975)" fill="#00a1b3"/>
        </g>
        <g id="Group_66" data-name="Group 66" transform="translate(198.992 123.944)" opacity="0.2">
          <path id="Path_221" data-name="Path 221" d="M448.4,300.442a4.844,4.844,0,1,1,4.844-4.844A4.849,4.849,0,0,1,448.4,300.442Zm0-8.33a3.486,3.486,0,1,0,3.486,3.486A3.49,3.49,0,0,0,448.4,292.112Z" transform="translate(-443.561 -290.754)" fill="#00a1b3"/>
        </g>
        <g id="Group_67" data-name="Group 67" transform="translate(201.642 52.427)" opacity="0.2">
          <path id="Path_222" data-name="Path 222" d="M452.423,154.63a3.554,3.554,0,1,1,3.554-3.554A3.558,3.558,0,0,1,452.423,154.63Zm0-5.75a2.2,2.2,0,1,0,2.2,2.2A2.2,2.2,0,0,0,452.423,148.881Z" transform="translate(-448.869 -147.523)" fill="#00a1b3"/>
        </g>
        <g id="Group_68" data-name="Group 68" transform="translate(100.707)" opacity="0.2">
          <path id="Path_223" data-name="Path 223" d="M250.274,49.632a3.554,3.554,0,1,1,3.554-3.554A3.558,3.558,0,0,1,250.274,49.632Zm0-5.749a2.2,2.2,0,1,0,2.2,2.2A2.2,2.2,0,0,0,250.274,43.883Z" transform="translate(-246.72 -42.525)" fill="#00a1b3"/>
        </g>
        <g id="Group_69" data-name="Group 69" transform="translate(25.637 80.442)" opacity="0.2">
          <path id="Path_224" data-name="Path 224" d="M99.927,210.737a3.554,3.554,0,1,1,3.554-3.554A3.558,3.558,0,0,1,99.927,210.737Zm0-5.75a2.2,2.2,0,1,0,2.2,2.2A2.2,2.2,0,0,0,99.927,204.988Z" transform="translate(-96.373 -203.63)" fill="#00a1b3"/>
        </g>
      </g>
      <g id="Group_71" data-name="Group 71" transform="translate(22.62 24.7)">
        <path id="Path_225" data-name="Path 225" d="M435.981,94.153a2.16,2.16,0,1,1-2.16-2.16A2.16,2.16,0,0,1,435.981,94.153Z" transform="translate(-261.077 -91.993)" fill="#00a1b3" opacity="0.2"/>
        <path id="Path_226" data-name="Path 226" d="M268.179,141.031a2.16,2.16,0,1,1-2.16-2.16A2.16,2.16,0,0,1,268.179,141.031Z" transform="translate(-177.061 -115.464)" fill="#00a1b3" opacity="0.2"/>
        <path id="Path_227" data-name="Path 227" d="M359.833,213.837a2.16,2.16,0,1,1-2.16-2.16A2.16,2.16,0,0,1,359.833,213.837Z" transform="translate(-222.951 -151.917)" fill="#00a1b3" opacity="0.2"/>
        <path id="Path_228" data-name="Path 228" d="M396.021,360.492a2.16,2.16,0,1,1-2.16-2.16A2.16,2.16,0,0,1,396.021,360.492Z" transform="translate(-241.07 -225.346)" fill="#00a1b3" opacity="0.2"/>
        <path id="Path_229" data-name="Path 229" d="M134.14,122.876a2.16,2.16,0,1,1-2.16-2.16A2.16,2.16,0,0,1,134.14,122.876Z" transform="translate(-109.949 -106.374)" fill="#00a1b3" opacity="0.2"/>
        <path id="Path_230" data-name="Path 230" d="M114.927,243.918a2.16,2.16,0,1,1-2.16-2.16A2.16,2.16,0,0,1,114.927,243.918Z" transform="translate(-100.33 -166.978)" fill="#00a1b3" opacity="0.2"/>
        <path id="Path_231" data-name="Path 231" d="M94.344,370.02a2.16,2.16,0,1,1-2.16-2.16A2.16,2.16,0,0,1,94.344,370.02Z" transform="translate(-90.024 -230.116)" fill="#00a1b3" opacity="0.2"/>
      </g>
    </g>
    <path id="Path_232" data-name="Path 232" d="M85.494,224.086c-2.652-4.439-4.18-9.629-3.365-14.7a22.953,22.953,0,0,1,5.049-10.494c2.207-2.777,6.042-5.1,7.707-8.17,3.521-6.489,1.229-16.168-1.893-22.274-3.8-7.437-9.731-13.4-14.882-19.878-4.659-5.858-8.81-12.524-9.563-19.971-.879-8.69,3.111-17.368,9.119-23.707C92.691,89.039,120.641,80.786,141.286,89c15.7,6.248,28,21.883,44.8,22.9,14.822.9,28.654-10.177,43.425-8.624,9.979,1.049,19.091,8.388,22.526,18.142a29.181,29.181,0,0,1-5.965,28.89c-4.563,4.865-10.639,7.817-16.237,11.337s-11.094,8.08-13.181,14.506c-4.348,13.387,7.79,27.182,6.195,41.208-1.751,15.4-17.224,22.868-29.888,28.018-27.545,11.2-62.924,16.5-88.52-2.2-6.312-4.612-13.17-10.746-17.7-17.174Q86.084,225.071,85.494,224.086Z" transform="translate(-11.868 -21.654)" fill="#00a1b3" opacity="0.05"/>
    <g id="Group_87" data-name="Group 87" transform="translate(68.805 125.659)">
      <g id="Group_79" data-name="Group 79" transform="translate(0 8.454)">
        <g id="Group_74" data-name="Group 74" transform="translate(0 39.495)">
          <path id="Path_233" data-name="Path 233" d="M93.439,305.051c5.932,8.7,15.816,13.773,25.588,17.685,7.821,3.132,16.17,5.957,21.941,12.1,6.681,7.105,8.685,17.419,8.935,27.168.1,3.828-3.061,7.6-6.726,8.71a9.88,9.88,0,0,1-10.329-3.218c-2.043-2.564-2.637-5.949-3.754-9.032-2.559-7.062-7.971-12.694-13.62-17.646s-11.741-9.515-16.357-15.441S91.8,312.381,93.439,305.051Z" transform="translate(-92.956 -305.051)" fill="#00a1b3" opacity="0.2"/>
          <g id="Group_73" data-name="Group 73" transform="translate(4.509 8.932)" opacity="0.2">
            <path id="Path_234" data-name="Path 234" d="M146.67,374.1a45.211,45.211,0,0,0-5.939-16.326,42.236,42.236,0,0,0-11.673-12.559c-2.329-1.717-4.8-3.263-7.3-4.8-2.486-1.562-5.034-3.064-7.474-4.767a51.744,51.744,0,0,1-6.943-5.614,28.57,28.57,0,0,1-5.351-7.091,34.612,34.612,0,0,0,6.031,6.34,62.947,62.947,0,0,0,7.143,5.016c2.5,1.51,5.041,2.969,7.6,4.441,2.546,1.493,5.081,3.057,7.513,4.808a41.835,41.835,0,0,1,6.705,6.034,39.856,39.856,0,0,1,5.145,7.4A37.313,37.313,0,0,1,146.67,374.1Z" transform="translate(-101.987 -322.939)" fill="#00a1b3"/>
          </g>
        </g>
        <g id="Group_76" data-name="Group 76" transform="translate(24.697)">
          <path id="Path_235" data-name="Path 235" d="M143.79,225.953c2.413,6.437,7.894,11.193,13.485,15.192,4.475,3.2,9.332,6.289,12.04,11.079,3.135,5.544,2.8,12.4,1.45,18.62a6.251,6.251,0,0,1-5.619,4.481,6.452,6.452,0,0,1-6.053-3.645c-.9-1.944-.749-4.183-.979-6.312-.527-4.877-3.085-9.29-5.9-13.308s-5.97-7.859-7.979-12.335S141.611,230.348,143.79,225.953Z" transform="translate(-142.418 -225.953)" fill="#00a1b3" opacity="0.2"/>
          <g id="Group_75" data-name="Group 75" transform="translate(2.539 6.291)" opacity="0.2">
            <path id="Path_236" data-name="Path 236" d="M167.9,277.94a29.525,29.525,0,0,0-1.232-11.278,27.578,27.578,0,0,0-5.455-9.779c-1.21-1.451-2.539-2.816-3.888-4.178s-2.717-2.725-4-4.184a33.819,33.819,0,0,1-3.533-4.64,18.665,18.665,0,0,1-2.293-5.329,22.615,22.615,0,0,0,2.842,4.958A41.054,41.054,0,0,0,154.1,247.8c1.348,1.346,2.737,2.666,4.132,4s2.748,2.728,4.019,4.216a27.332,27.332,0,0,1,3.316,4.869,26.036,26.036,0,0,1,2.116,5.49A24.365,24.365,0,0,1,167.9,277.94Z" transform="translate(-147.503 -238.552)" fill="#00a1b3"/>
          </g>
        </g>
        <g id="Group_78" data-name="Group 78" transform="translate(7.709 28.838)">
          <path id="Path_237" data-name="Path 237" d="M108.69,285.96c.861-1.369,3.389-2,4.747-2.193a4.951,4.951,0,0,1,4.7,1.713c1.561,2.152.584,5.395,2.055,7.609,1.352,2.036,4.17,2.377,6.614,2.345s5.151-.152,7.019,1.424a7.537,7.537,0,0,1,2.218,5.09,40.183,40.183,0,0,0,.569,5.658,5.543,5.543,0,0,0,3.478,4.174c1.322.371,2.728.006,4.1.055a6.991,6.991,0,0,1,6.5,6.286,6.614,6.614,0,0,1-1.678,4.772c-4.542,5.2-14.645,2.065-18.064-2.957-1.393-2.046-1.5-4.413-1.719-6.8-.194-2.1-.637-4.322-2.124-5.813-2.382-2.388-6.357-1.957-9.4-3.415a8.129,8.129,0,0,1-4.381-5.617c-.635-3.121.3-6.046-2.565-8.294a6.463,6.463,0,0,1-2.086-1.956A2.026,2.026,0,0,1,108.69,285.96Z" transform="translate(-108.394 -283.708)" fill="#00a1b3" opacity="0.2"/>
          <g id="Group_77" data-name="Group 77" transform="translate(4.175 4.064)" opacity="0.2">
            <path id="Path_238" data-name="Path 238" d="M116.756,291.884a2.77,2.77,0,0,1,1.578.212,3.934,3.934,0,0,1,1.3.971,5.877,5.877,0,0,1,1.317,2.961c.2,1.068.232,2.143.373,3.173a7.261,7.261,0,0,0,.9,2.872,4.329,4.329,0,0,0,2.274,1.738,11.819,11.819,0,0,0,3.009.576,18.039,18.039,0,0,1,3.224.5,10.379,10.379,0,0,1,5.424,3.7,11.413,11.413,0,0,1,1.574,2.908c.772,2.037,1.178,4.129,2.04,6a9.461,9.461,0,0,0,4.158,4.408,15.9,15.9,0,0,0,6.012,1.805,15.107,15.107,0,0,1-6.234-1.378,10.8,10.8,0,0,1-2.687-1.847,9.293,9.293,0,0,1-1.939-2.654c-1-1.96-1.428-4.085-2.216-6a10.842,10.842,0,0,0-1.47-2.664,9.845,9.845,0,0,0-4.925-3.364,18.533,18.533,0,0,0-3.06-.5,12.622,12.622,0,0,1-3.216-.7,5.887,5.887,0,0,1-1.49-.835,4.6,4.6,0,0,1-1.131-1.31,7.726,7.726,0,0,1-.881-3.2c-.09-1.081-.079-2.137-.209-3.171a5.518,5.518,0,0,0-1.042-2.868A3.2,3.2,0,0,0,116.756,291.884Z" transform="translate(-116.756 -291.848)" fill="#00a1b3"/>
          </g>
        </g>
        <path id="Path_239" data-name="Path 239" d="M153.849,290.37a14.051,14.051,0,0,0-4.425-7.363,18.389,18.389,0,0,0-2.767-1.76c.092-.1.174-.187.229-.247a3.355,3.355,0,0,0,.534-.791,1.527,1.527,0,0,0,.184-.789.738.738,0,0,0-.446-.636.754.754,0,0,0-.776.243,1.748,1.748,0,0,0-.36.773,7.636,7.636,0,0,0-.165,1.008,21.434,21.434,0,0,1-1.97-1.186c.224-.14.44-.312.565-.407a4.191,4.191,0,0,0,.832-.854,1.9,1.9,0,0,0,.4-.93.922.922,0,0,0-.408-.881.943.943,0,0,0-1.008.126,2.188,2.188,0,0,0-.614.871,8.686,8.686,0,0,0-.5,1.518l-.015-.012a10.149,10.149,0,0,1-1.89-2.128,7.125,7.125,0,0,0,.957-.483,5.221,5.221,0,0,0,1.18-.909,2.374,2.374,0,0,0,.66-1.081,1.152,1.152,0,0,0-.349-1.162,1.179,1.179,0,0,0-1.269-.021,2.733,2.733,0,0,0-.912.969,11.165,11.165,0,0,0-.859,1.71,17.386,17.386,0,0,1-1.269-3.009,7.308,7.308,0,0,0,2.8-1.715,2.774,2.774,0,0,0,.77-1.261,1.347,1.347,0,0,0-.407-1.357,1.376,1.376,0,0,0-1.482-.024A3.187,3.187,0,0,0,140,269.713a13.068,13.068,0,0,0-.988,1.96c-.076-.285-.15-.574-.221-.874-.172-.733-.323-1.479-.468-2.221a7.425,7.425,0,0,0,1.883-.85,7.841,7.841,0,0,0,1.774-1.367,3.573,3.573,0,0,0,.992-1.624,1.733,1.733,0,0,0-.525-1.747,1.772,1.772,0,0,0-1.908-.031,4.1,4.1,0,0,0-1.371,1.457,17.3,17.3,0,0,0-1.2,2.344,38.152,38.152,0,0,0-1.133-4.594,8.645,8.645,0,0,0,1.909-1.572,9.271,9.271,0,0,0,1.6-2.107,4.224,4.224,0,0,0,.628-2.158,2.047,2.047,0,0,0-1.138-1.828,2.092,2.092,0,0,0-2.184.555,4.84,4.84,0,0,0-1.112,2.085,21,21,0,0,0-.609,2.766,13.008,13.008,0,0,0-2.514-3.548,8.778,8.778,0,0,0,1.272-2.1,9.27,9.27,0,0,0,.816-2.516,4.225,4.225,0,0,0-.118-2.244,2.047,2.047,0,0,0-1.677-1.352,2.091,2.091,0,0,0-1.879,1.243,4.843,4.843,0,0,0-.365,2.334,19.534,19.534,0,0,0,.473,3.426,8.337,8.337,0,0,0-2.2-1.051l-.261.867a7.584,7.584,0,0,1,2.263,1.145,14.261,14.261,0,0,0-1.651.493,9.263,9.263,0,0,0-2.356,1.2,4.215,4.215,0,0,0-1.5,1.67,2.047,2.047,0,0,0,.23,2.142,2.092,2.092,0,0,0,2.207.45,4.848,4.848,0,0,0,1.908-1.393,16.174,16.174,0,0,0,2.441-3.44,12.9,12.9,0,0,1,2.559,4.1,10.4,10.4,0,0,0-2.184.389,9.275,9.275,0,0,0-2.448,1,4.218,4.218,0,0,0-1.638,1.538,2.047,2.047,0,0,0,.05,2.154,2.093,2.093,0,0,0,2.163.633,4.844,4.844,0,0,0,2.018-1.229,17.625,17.625,0,0,0,2.571-2.97,46.983,46.983,0,0,1,1.149,4.963,11.451,11.451,0,0,0-1.526-.1,7.839,7.839,0,0,0-2.222.275,3.571,3.571,0,0,0-1.68.894,1.733,1.733,0,0,0-.436,1.771,1.771,1.771,0,0,0,1.626,1,4.1,4.1,0,0,0,1.922-.556,15.764,15.764,0,0,0,2.622-1.73c.11.545.227,1.092.354,1.632.107.454.222.892.344,1.317-.356-.035-.717-.037-.927-.041a6.1,6.1,0,0,0-1.726.214,2.774,2.774,0,0,0-1.3.695,1.346,1.346,0,0,0-.339,1.375,1.376,1.376,0,0,0,1.263.774,3.188,3.188,0,0,0,1.492-.432,12.618,12.618,0,0,0,1.955-1.275,17.915,17.915,0,0,0,1.25,2.833c-.272-.021-.536-.023-.7-.026a5.22,5.22,0,0,0-1.478.183,2.373,2.373,0,0,0-1.117.6,1.152,1.152,0,0,0-.291,1.178,1.178,1.178,0,0,0,1.082.664,2.732,2.732,0,0,0,1.279-.37,9.97,9.97,0,0,0,1.83-1.23,11.115,11.115,0,0,0,1.776,2.064l-.216.026a4.183,4.183,0,0,0-1.151.312,1.9,1.9,0,0,0-.818.6.924.924,0,0,0-.1.967.945.945,0,0,0,.933.4,2.19,2.19,0,0,0,.971-.438,8.192,8.192,0,0,0,1.284-1.145,20.391,20.391,0,0,0,2.083,1.286c-.087.025-.164.05-.221.068a3.346,3.346,0,0,0-.862.409,1.516,1.516,0,0,0-.56.586.739.739,0,0,0,.06.775.755.755,0,0,0,.791.186,1.753,1.753,0,0,0,.7-.483,6.391,6.391,0,0,0,.864-1.114,18.572,18.572,0,0,1,2.786,1.754,13.166,13.166,0,0,1,4.119,6.891,39.857,39.857,0,0,1,.982,8.281l.9-.044A40.526,40.526,0,0,0,153.849,290.37Z" transform="translate(-109.516 -237.064)" fill="#00a1b3" opacity="0.2"/>
        <path id="Path_240" data-name="Path 240" d="M144.082,405.39a13.544,13.544,0,0,1-7.406-3.7,17.765,17.765,0,0,1-1.9-2.528c-.085.1-.167.181-.221.238a3.226,3.226,0,0,1-.72.573,1.468,1.468,0,0,1-.745.235.711.711,0,0,1-.645-.381.729.729,0,0,1,.175-.764,1.688,1.688,0,0,1,.716-.4,7.315,7.315,0,0,1,.957-.233,20.588,20.588,0,0,0-1.286-1.8c-.118.226-.268.446-.35.573a4.034,4.034,0,0,1-.758.863,1.836,1.836,0,0,1-.864.454.889.889,0,0,1-.878-.326.91.91,0,0,1,.047-.978,2.107,2.107,0,0,1,.791-.655,8.335,8.335,0,0,1,1.422-.594l-.012-.014a9.8,9.8,0,0,0-2.185-1.657,6.99,6.99,0,0,1-.392.956,5.056,5.056,0,0,1-.786,1.2,2.291,2.291,0,0,1-.989.714,1.111,1.111,0,0,1-1.143-.249,1.137,1.137,0,0,1-.115-1.218,2.629,2.629,0,0,1,.863-.949,10.7,10.7,0,0,1,1.579-.953,16.741,16.741,0,0,0-2.986-1,7.062,7.062,0,0,1-1.439,2.82,2.673,2.673,0,0,1-1.155.834,1.3,1.3,0,0,1-1.334-.29,1.327,1.327,0,0,1-.134-1.423,3.064,3.064,0,0,1,1.008-1.108,12.617,12.617,0,0,1,1.81-1.1c-.279-.052-.563-.1-.856-.147-.717-.111-1.446-.2-2.17-.285a7.17,7.17,0,0,1-.677,1.874,7.565,7.565,0,0,1-1.181,1.807,3.446,3.446,0,0,1-1.486,1.074,1.671,1.671,0,0,1-1.718-.374,1.707,1.707,0,0,1-.172-1.831,3.951,3.951,0,0,1,1.3-1.427,16.679,16.679,0,0,1,2.163-1.33,36.879,36.879,0,0,1-4.5-.746,8.351,8.351,0,0,1-1.368,1.952,8.922,8.922,0,0,1-1.905,1.693,4.071,4.071,0,0,1-2.027.764,1.974,1.974,0,0,1-1.842-.958,2.019,2.019,0,0,1,.37-2.141,4.672,4.672,0,0,1,1.92-1.224,20.245,20.245,0,0,1,2.613-.792,12.548,12.548,0,0,1-3.6-2.151,8.47,8.47,0,0,1-1.922,1.379,8.946,8.946,0,0,1-2.357.972,4.067,4.067,0,0,1-2.166.054,1.973,1.973,0,0,1-1.425-1.51,2.017,2.017,0,0,1,1.054-1.9,4.676,4.676,0,0,1,2.216-.524,18.837,18.837,0,0,1,3.328.2,8.052,8.052,0,0,1-1.174-2.038l.813-.316a7.312,7.312,0,0,0,1.27,2.09,13.784,13.784,0,0,1,.35-1.623,8.949,8.949,0,0,1,.979-2.354,4.067,4.067,0,0,1,1.493-1.569,1.972,1.972,0,0,1,2.075.061,2.017,2.017,0,0,1,.6,2.088,4.671,4.671,0,0,1-1.2,1.938,15.6,15.6,0,0,1-3.123,2.6,12.435,12.435,0,0,0,4.136,2.154,9.982,9.982,0,0,1,.211-2.128,8.924,8.924,0,0,1,.779-2.427,4.063,4.063,0,0,1,1.357-1.689,1.972,1.972,0,0,1,2.073-.113,2.017,2.017,0,0,1,.77,2.031,4.671,4.671,0,0,1-1.031,2.031,16.993,16.993,0,0,1-2.662,2.693,45.553,45.553,0,0,0,4.855.734,11.093,11.093,0,0,1-.205-1.46,7.565,7.565,0,0,1,.1-2.157,3.446,3.446,0,0,1,.734-1.681,1.671,1.671,0,0,1,1.67-.552,1.708,1.708,0,0,1,1.08,1.489,3.95,3.95,0,0,1-.391,1.888,15.152,15.152,0,0,1-1.467,2.649c.532.066,1.067.137,1.595.219.445.069.874.147,1.291.232-.06-.339-.088-.686-.108-.888a5.887,5.887,0,0,1,.076-1.675,2.676,2.676,0,0,1,.57-1.305,1.3,1.3,0,0,1,1.3-.429,1.326,1.326,0,0,1,.839,1.156,3.07,3.07,0,0,1-.3,1.467,12.242,12.242,0,0,1-1.079,1.974,17.288,17.288,0,0,1,2.815.989c-.041-.259-.062-.513-.077-.668a5.03,5.03,0,0,1,.065-1.435,2.29,2.29,0,0,1,.488-1.118,1.112,1.112,0,0,1,1.11-.367,1.137,1.137,0,0,1,.719.991,2.633,2.633,0,0,1-.261,1.257,9.616,9.616,0,0,1-1.045,1.851,10.7,10.7,0,0,1,2.115,1.553c0-.08.007-.155.009-.21a4.026,4.026,0,0,1,.214-1.129,1.836,1.836,0,0,1,.513-.831.89.89,0,0,1,.922-.165.91.91,0,0,1,.457.866,2.1,2.1,0,0,1-.349.966,7.906,7.906,0,0,1-1,1.319,19.685,19.685,0,0,1,1.391,1.906c.018-.086.036-.162.049-.217a3.25,3.25,0,0,1,.329-.859,1.473,1.473,0,0,1,.522-.582.713.713,0,0,1,.749,0,.728.728,0,0,1,.237.747,1.687,1.687,0,0,1-.411.711,6.175,6.175,0,0,1-1.007.914,17.855,17.855,0,0,0,1.894,2.547,12.689,12.689,0,0,0,6.929,3.444,38.407,38.407,0,0,0,8.031.326l.025.873A39.063,39.063,0,0,1,144.082,405.39Z" transform="translate(-97.477 -303.525)" fill="#00a1b3" opacity="0.2"/>
      </g>
      <g id="Group_86" data-name="Group 86" transform="translate(85.334)">
        <g id="Group_81" data-name="Group 81" transform="translate(0 42.32)">
          <path id="Path_241" data-name="Path 241" d="M324.364,293.777c-6.357,9.317-16.947,14.758-27.418,18.95-8.381,3.356-17.327,6.384-23.511,12.961-7.159,7.613-9.306,18.664-9.574,29.111-.1,4.1,3.281,8.144,7.207,9.333a10.586,10.586,0,0,0,11.068-3.448c2.189-2.748,2.826-6.374,4.022-9.677,2.742-7.568,8.541-13.6,14.594-18.908s12.581-10.2,17.527-16.546S326.122,301.631,324.364,293.777Z" transform="translate(-263.858 -293.777)" fill="#00a1b3" opacity="0.2"/>
          <g id="Group_80" data-name="Group 80" transform="translate(8.311 9.57)" opacity="0.2">
            <path id="Path_242" data-name="Path 242" d="M280.5,367.76a48.444,48.444,0,0,1,6.364-17.493,45.263,45.263,0,0,1,12.508-13.457c2.5-1.839,5.146-3.5,7.826-5.142,2.664-1.674,5.394-3.283,8.008-5.108a55.431,55.431,0,0,0,7.44-6.016,30.623,30.623,0,0,0,5.734-7.6,37.088,37.088,0,0,1-6.462,6.793,67.475,67.475,0,0,1-7.653,5.375c-2.674,1.618-5.4,3.182-8.144,4.759-2.729,1.6-5.445,3.276-8.051,5.152a44.813,44.813,0,0,0-7.185,6.466,42.692,42.692,0,0,0-5.513,7.924A39.982,39.982,0,0,0,280.5,367.76Z" transform="translate(-280.504 -312.944)" fill="#00a1b3"/>
          </g>
        </g>
        <g id="Group_83" data-name="Group 83" transform="translate(3.128)">
          <path id="Path_243" data-name="Path 243" d="M300.085,209.021c-2.586,6.9-8.459,11.993-14.45,16.278-4.8,3.43-10,6.739-12.9,11.872-3.359,5.941-3.005,13.284-1.553,19.952a6.7,6.7,0,0,0,6.021,4.8,6.914,6.914,0,0,0,6.486-3.906c.962-2.083.8-4.482,1.049-6.763.564-5.226,3.306-9.954,6.322-14.26s6.4-8.421,8.549-13.217S302.42,213.73,300.085,209.021Z" transform="translate(-270.124 -209.021)" fill="#00a1b3" opacity="0.2"/>
          <g id="Group_82" data-name="Group 82" transform="translate(6.218 6.741)" opacity="0.2">
            <path id="Path_244" data-name="Path 244" d="M283.208,264.726a31.641,31.641,0,0,1,1.321-12.084,29.558,29.558,0,0,1,5.845-10.479c1.3-1.554,2.721-3.017,4.166-4.477,1.43-1.476,2.911-2.92,4.287-4.484a36.259,36.259,0,0,0,3.785-4.971,20.007,20.007,0,0,0,2.457-5.711,24.212,24.212,0,0,1-3.045,5.313,43.953,43.953,0,0,1-4.02,4.6c-1.445,1.442-2.932,2.857-4.427,4.284s-2.945,2.923-4.307,4.518a29.287,29.287,0,0,0-3.554,5.217,27.9,27.9,0,0,0-2.267,5.883A26.116,26.116,0,0,0,283.208,264.726Z" transform="translate(-282.576 -222.521)" fill="#00a1b3"/>
          </g>
        </g>
        <g id="Group_85" data-name="Group 85" transform="translate(7.431 30.901)">
          <path id="Path_245" data-name="Path 245" d="M323.755,273.32c-.922-1.466-3.631-2.139-5.086-2.349a5.3,5.3,0,0,0-5.039,1.835c-1.673,2.306-.625,5.781-2.2,8.153-1.449,2.181-4.468,2.547-7.087,2.513s-5.52-.163-7.521,1.526a8.076,8.076,0,0,0-2.377,5.454,42.977,42.977,0,0,1-.609,6.062c-.5,1.972-1.769,3.922-3.727,4.473-1.416.4-2.923.007-4.393.059a7.491,7.491,0,0,0-6.959,6.736,7.087,7.087,0,0,0,1.8,5.113c4.867,5.575,15.692,2.213,19.356-3.169,1.493-2.192,1.606-4.729,1.842-7.287.208-2.247.683-4.631,2.276-6.228,2.552-2.559,6.811-2.1,10.071-3.659a8.709,8.709,0,0,0,4.695-6.019c.681-3.344-.317-6.478,2.748-8.887a6.923,6.923,0,0,0,2.234-2.1A2.17,2.17,0,0,0,323.755,273.32Z" transform="translate(-278.741 -270.908)" fill="#00a1b3" opacity="0.2"/>
          <g id="Group_84" data-name="Group 84" transform="translate(5.303 4.355)" opacity="0.2">
            <path id="Path_246" data-name="Path 246" d="M324.916,279.668a2.966,2.966,0,0,0-1.691.227,4.222,4.222,0,0,0-1.394,1.041,6.3,6.3,0,0,0-1.412,3.173c-.209,1.144-.249,2.3-.4,3.4a7.782,7.782,0,0,1-.963,3.078,4.632,4.632,0,0,1-2.437,1.861,12.635,12.635,0,0,1-3.224.617,19.338,19.338,0,0,0-3.455.539,11.116,11.116,0,0,0-5.812,3.968,12.251,12.251,0,0,0-1.687,3.116c-.828,2.184-1.262,4.425-2.186,6.434a10.137,10.137,0,0,1-4.455,4.724,17.035,17.035,0,0,1-6.442,1.935,16.183,16.183,0,0,0,6.68-1.476,11.57,11.57,0,0,0,2.879-1.979A9.962,9.962,0,0,0,301,307.479c1.071-2.1,1.529-4.377,2.375-6.427a11.627,11.627,0,0,1,1.575-2.855,10.554,10.554,0,0,1,5.278-3.606,19.84,19.84,0,0,1,3.278-.538,13.54,13.54,0,0,0,3.446-.746,6.305,6.305,0,0,0,1.6-.895,4.924,4.924,0,0,0,1.212-1.4,8.271,8.271,0,0,0,.944-3.424c.1-1.158.084-2.29.224-3.4a5.909,5.909,0,0,1,1.116-3.072A3.427,3.427,0,0,1,324.916,279.668Z" transform="translate(-289.361 -279.629)" fill="#00a1b3"/>
          </g>
        </g>
        <path id="Path_247" data-name="Path 247" d="M289.845,278.046a15.061,15.061,0,0,1,4.742-7.889,19.651,19.651,0,0,1,2.965-1.886c-.1-.1-.186-.2-.245-.265a3.582,3.582,0,0,1-.573-.847,1.636,1.636,0,0,1-.2-.846.792.792,0,0,1,.478-.682.809.809,0,0,1,.831.26,1.868,1.868,0,0,1,.385.828,8.036,8.036,0,0,1,.176,1.08,22.988,22.988,0,0,0,2.111-1.27c-.24-.15-.472-.335-.6-.437a4.48,4.48,0,0,1-.892-.915,2.038,2.038,0,0,1-.429-1,.988.988,0,0,1,.437-.944,1.01,1.01,0,0,1,1.08.136,2.341,2.341,0,0,1,.658.933,9.269,9.269,0,0,1,.536,1.626l.016-.012a10.858,10.858,0,0,0,2.025-2.28,7.682,7.682,0,0,1-1.025-.517,5.6,5.6,0,0,1-1.265-.974,2.549,2.549,0,0,1-.707-1.158,1.235,1.235,0,0,1,.374-1.245,1.262,1.262,0,0,1,1.36-.022,2.923,2.923,0,0,1,.978,1.039,11.864,11.864,0,0,1,.92,1.831,18.646,18.646,0,0,0,1.36-3.224,7.841,7.841,0,0,1-3-1.837,2.976,2.976,0,0,1-.825-1.352,1.443,1.443,0,0,1,.437-1.454,1.474,1.474,0,0,1,1.588-.026,3.42,3.42,0,0,1,1.141,1.212,14.069,14.069,0,0,1,1.059,2.1c.081-.305.161-.615.237-.936.185-.785.347-1.585.5-2.38a7.972,7.972,0,0,1-2.018-.911,8.428,8.428,0,0,1-1.9-1.464,3.831,3.831,0,0,1-1.062-1.74,1.857,1.857,0,0,1,.562-1.872,1.9,1.9,0,0,1,2.044-.033,4.394,4.394,0,0,1,1.469,1.561,18.589,18.589,0,0,1,1.287,2.512,40.9,40.9,0,0,1,1.214-4.923,9.266,9.266,0,0,1-2.046-1.684,9.943,9.943,0,0,1-1.713-2.257,4.527,4.527,0,0,1-.672-2.312,2.193,2.193,0,0,1,1.22-1.959,2.242,2.242,0,0,1,2.34.594,5.193,5.193,0,0,1,1.192,2.233,22.51,22.51,0,0,1,.653,2.964,13.944,13.944,0,0,1,2.693-3.8,9.4,9.4,0,0,1-1.363-2.249,9.934,9.934,0,0,1-.875-2.7,4.528,4.528,0,0,1,.126-2.4,2.193,2.193,0,0,1,1.8-1.449,2.242,2.242,0,0,1,2.014,1.331,5.189,5.189,0,0,1,.39,2.5,20.9,20.9,0,0,1-.507,3.671,8.944,8.944,0,0,1,2.36-1.126l.28.929a8.126,8.126,0,0,0-2.426,1.227,15.23,15.23,0,0,1,1.77.528,9.939,9.939,0,0,1,2.524,1.288,4.52,4.52,0,0,1,1.611,1.79,2.192,2.192,0,0,1-.246,2.295,2.243,2.243,0,0,1-2.366.483,5.2,5.2,0,0,1-2.045-1.493,17.312,17.312,0,0,1-2.615-3.686,13.828,13.828,0,0,0-2.743,4.4,11.108,11.108,0,0,1,2.34.417,9.936,9.936,0,0,1,2.623,1.072,4.522,4.522,0,0,1,1.755,1.649,2.193,2.193,0,0,1-.053,2.307,2.242,2.242,0,0,1-2.317.679,5.188,5.188,0,0,1-2.163-1.317,18.922,18.922,0,0,1-2.756-3.182,50.5,50.5,0,0,0-1.231,5.317,12.232,12.232,0,0,1,1.636-.1,8.406,8.406,0,0,1,2.381.294,3.827,3.827,0,0,1,1.8.958,1.857,1.857,0,0,1,.468,1.9A1.9,1.9,0,0,1,312.168,258a4.394,4.394,0,0,1-2.059-.6,16.878,16.878,0,0,1-2.81-1.854c-.118.584-.243,1.17-.379,1.749-.115.487-.238.956-.368,1.411.381-.038.768-.039.994-.044a6.55,6.55,0,0,1,1.849.229,2.975,2.975,0,0,1,1.4.744,1.441,1.441,0,0,1,.364,1.473,1.474,1.474,0,0,1-1.354.83,3.41,3.41,0,0,1-1.6-.463,13.545,13.545,0,0,1-2.1-1.366,19.223,19.223,0,0,1-1.339,3.035c.291-.023.574-.025.747-.028a5.582,5.582,0,0,1,1.584.2,2.548,2.548,0,0,1,1.2.638,1.236,1.236,0,0,1,.312,1.262,1.264,1.264,0,0,1-1.16.711,2.921,2.921,0,0,1-1.37-.4,10.65,10.65,0,0,1-1.961-1.317,11.9,11.9,0,0,1-1.9,2.211l.232.028a4.5,4.5,0,0,1,1.233.334,2.041,2.041,0,0,1,.877.641.988.988,0,0,1,.1,1.035,1.01,1.01,0,0,1-1,.432,2.338,2.338,0,0,1-1.041-.469,8.824,8.824,0,0,1-1.376-1.227,21.931,21.931,0,0,1-2.232,1.378c.093.027.176.054.237.073a3.579,3.579,0,0,1,.924.438,1.628,1.628,0,0,1,.6.629.789.789,0,0,1-.065.83.809.809,0,0,1-.848.2,1.876,1.876,0,0,1-.753-.517,6.851,6.851,0,0,1-.927-1.194,19.894,19.894,0,0,0-2.985,1.879,14.108,14.108,0,0,0-4.413,7.384,42.707,42.707,0,0,0-1.053,8.873l-.969-.047A43.47,43.47,0,0,1,289.845,278.046Z" transform="translate(-276.327 -220.927)" fill="#00a1b3" opacity="0.2"/>
        <path id="Path_248" data-name="Path 248" d="M277.232,401.292a14.512,14.512,0,0,0,7.936-3.969,18.98,18.98,0,0,0,2.034-2.709c.091.1.178.194.236.255a3.45,3.45,0,0,0,.771.613,1.575,1.575,0,0,0,.8.253.763.763,0,0,0,.691-.409.78.78,0,0,0-.188-.818,1.8,1.8,0,0,0-.767-.432,7.856,7.856,0,0,0-1.025-.25,22.174,22.174,0,0,1,1.379-1.934c.127.242.287.478.375.614a4.315,4.315,0,0,0,.812.926,1.972,1.972,0,0,0,.927.487.954.954,0,0,0,.94-.35.975.975,0,0,0-.05-1.048,2.256,2.256,0,0,0-.848-.7,8.974,8.974,0,0,0-1.523-.636l.013-.015a10.5,10.5,0,0,1,2.342-1.776,7.345,7.345,0,0,0,.42,1.024,5.391,5.391,0,0,0,.842,1.288,2.452,2.452,0,0,0,1.06.766,1.19,1.19,0,0,0,1.224-.267,1.217,1.217,0,0,0,.123-1.306,2.825,2.825,0,0,0-.925-1.017,11.464,11.464,0,0,0-1.692-1.021,17.919,17.919,0,0,1,3.2-1.066,7.554,7.554,0,0,0,1.542,3.021,2.867,2.867,0,0,0,1.237.894,1.39,1.39,0,0,0,1.43-.311,1.422,1.422,0,0,0,.143-1.524,3.289,3.289,0,0,0-1.08-1.187,13.46,13.46,0,0,0-1.939-1.174c.3-.055.6-.109.918-.157.768-.119,1.549-.215,2.324-.306a7.7,7.7,0,0,0,.725,2.008,8.108,8.108,0,0,0,1.266,1.936,3.689,3.689,0,0,0,1.593,1.151,1.791,1.791,0,0,0,1.841-.4,1.831,1.831,0,0,0,.185-1.962,4.244,4.244,0,0,0-1.391-1.529,18.016,18.016,0,0,0-2.318-1.425,39.411,39.411,0,0,0,4.821-.8,8.946,8.946,0,0,0,1.466,2.092,9.577,9.577,0,0,0,2.042,1.814,4.36,4.36,0,0,0,2.172.819,2.115,2.115,0,0,0,1.974-1.026,2.161,2.161,0,0,0-.4-2.293,5,5,0,0,0-2.058-1.313,21.792,21.792,0,0,0-2.8-.848,13.43,13.43,0,0,0,3.855-2.3,9.065,9.065,0,0,0,2.06,1.477,9.587,9.587,0,0,0,2.526,1.042,4.357,4.357,0,0,0,2.32.058,2.113,2.113,0,0,0,1.526-1.619,2.16,2.16,0,0,0-1.129-2.035,5,5,0,0,0-2.375-.562,20.126,20.126,0,0,0-3.566.213,8.615,8.615,0,0,0,1.258-2.184l-.871-.339a7.833,7.833,0,0,1-1.36,2.239,14.828,14.828,0,0,0-.375-1.74A9.594,9.594,0,0,0,312.856,377a4.361,4.361,0,0,0-1.6-1.682,2.114,2.114,0,0,0-2.224.065,2.161,2.161,0,0,0-.64,2.237,5,5,0,0,0,1.282,2.077,16.707,16.707,0,0,0,3.347,2.789,13.321,13.321,0,0,1-4.431,2.307,10.748,10.748,0,0,0-.226-2.28,9.594,9.594,0,0,0-.835-2.6,4.359,4.359,0,0,0-1.453-1.809,2.114,2.114,0,0,0-2.222-.121,2.161,2.161,0,0,0-.825,2.177,5.006,5.006,0,0,0,1.1,2.176,18.213,18.213,0,0,0,2.853,2.886,48.57,48.57,0,0,1-5.2.786,11.74,11.74,0,0,0,.22-1.564,8.113,8.113,0,0,0-.105-2.31,3.688,3.688,0,0,0-.786-1.8,1.79,1.79,0,0,0-1.789-.591,1.829,1.829,0,0,0-1.157,1.6,4.234,4.234,0,0,0,.419,2.023,16.263,16.263,0,0,0,1.572,2.838c-.57.07-1.142.146-1.709.234-.477.074-.936.158-1.383.249.064-.363.095-.735.116-.952a6.288,6.288,0,0,0-.082-1.795,2.867,2.867,0,0,0-.611-1.4,1.39,1.39,0,0,0-1.389-.459,1.421,1.421,0,0,0-.9,1.239,3.294,3.294,0,0,0,.326,1.571A13.077,13.077,0,0,0,295.681,387a18.557,18.557,0,0,0-3.017,1.06c.044-.278.067-.549.083-.715a5.418,5.418,0,0,0-.07-1.537,2.458,2.458,0,0,0-.523-1.2,1.191,1.191,0,0,0-1.19-.393,1.218,1.218,0,0,0-.77,1.061,2.822,2.822,0,0,0,.28,1.347,10.274,10.274,0,0,0,1.119,1.983,11.456,11.456,0,0,0-2.267,1.664c0-.086-.007-.166-.01-.225a4.312,4.312,0,0,0-.229-1.21,1.973,1.973,0,0,0-.55-.89.954.954,0,0,0-.988-.177.975.975,0,0,0-.49.928,2.258,2.258,0,0,0,.373,1.035,8.515,8.515,0,0,0,1.077,1.414,21.113,21.113,0,0,0-1.49,2.042c-.02-.091-.039-.173-.052-.233a3.476,3.476,0,0,0-.352-.92,1.577,1.577,0,0,0-.559-.623.762.762,0,0,0-.8,0,.78.78,0,0,0-.254.8,1.8,1.8,0,0,0,.44.762,6.617,6.617,0,0,0,1.078.98,19.131,19.131,0,0,1-2.029,2.729,13.6,13.6,0,0,1-7.425,3.69,41.133,41.133,0,0,1-8.606.349l-.027.935A41.858,41.858,0,0,0,277.232,401.292Z" transform="translate(-266.148 -292.142)" fill="#00a1b3" opacity="0.2"/>
      </g>
    </g>
    <g id="Group_128" data-name="Group 128" transform="translate(96.929 52.846)">
      <ellipse id="Ellipse_37" data-name="Ellipse 37" cx="57.121" cy="3.799" rx="57.121" ry="3.799" transform="translate(0 184.12)" opacity="0.1"/>
      <g id="Group_104" data-name="Group 104" transform="translate(7.92 60.811)">
        <g id="Group_88" data-name="Group 88">
          <rect id="Rectangle_106" data-name="Rectangle 106" width="60.568" height="125.361" rx="15.163" transform="translate(4.845)" fill="#007785"/>
          <rect id="Rectangle_107" data-name="Rectangle 107" width="60.568" height="125.361" rx="15.163" transform="translate(0.854)" fill="#00a1b3"/>
          <path id="Path_249" data-name="Path 249" d="M166.024,237.129h0v-8.771h0a.88.88,0,0,0-.881.88v7.01A.881.881,0,0,0,166.024,237.129Z" transform="translate(-165.143 -206.701)" fill="#00a1b3"/>
          <path id="Path_250" data-name="Path 250" d="M292.312,232.3l-.852.008a.917.917,0,0,0-.908.917V245.5a.917.917,0,0,0,.917.917h.843Z" transform="translate(-227.933 -208.673)" fill="#00606b"/>
          <path id="Path_251" data-name="Path 251" d="M292.636,232.3h0a.88.88,0,0,0-.88.88V245.52a.88.88,0,0,0,.88.88h0a.88.88,0,0,0,.88-.88V233.176A.88.88,0,0,0,292.636,232.3Z" transform="translate(-228.537 -208.673)" fill="#00a1b3"/>
          <path id="Path_252" data-name="Path 252" d="M166.024,257.669h0V248.9h0a.881.881,0,0,0-.881.88v7.01A.881.881,0,0,0,166.024,257.669Z" transform="translate(-165.143 -216.986)" fill="#00a1b3"/>
          <path id="Path_253" data-name="Path 253" d="M226.542,192.153H210.887a.939.939,0,0,1-.939-.939h0a.939.939,0,0,1,.939-.939h15.655a.939.939,0,0,1,.939.939h0A.939.939,0,0,1,226.542,192.153Z" transform="translate(-187.576 -187.634)" fill="#007785"/>
        </g>
        <path id="Path_254" data-name="Path 254" d="M222,190.275h-8.722v.682a3.235,3.235,0,0,1-3.236,3.236H189.178a3.235,3.235,0,0,1-3.235-3.236v-.682H177.22a5.428,5.428,0,0,0-5.429,5.429V304.925a5.429,5.429,0,0,0,5.429,5.429H222a5.429,5.429,0,0,0,5.429-5.429V195.7A5.429,5.429,0,0,0,222,190.275Z" transform="translate(-168.472 -187.634)" fill="#fff"/>
        <g id="Group_91" data-name="Group 91" transform="translate(16.701 15.488)">
          <g id="Group_89" data-name="Group 89">
            <path id="Rectangle_108" data-name="Rectangle 108" d="M6.987,0H31.146a6.987,6.987,0,0,1,6.987,6.987v6.987a0,0,0,0,1,0,0H6.987A6.987,6.987,0,0,1,0,6.987v0A6.987,6.987,0,0,1,6.987,0Z" fill="#dcf7f7"/>
          </g>
          <g id="Group_90" data-name="Group 90" transform="translate(5.503 3.192)">
            <line id="Line_1" data-name="Line 1" x2="22.539" stroke-width="3.481" stroke="#c4d0d4" stroke-linecap="round" stroke-linejoin="round" fill="none"/>
            <line id="Line_2" data-name="Line 2" x2="7.658" transform="translate(0 3.796)" fill="none" stroke="#c4d0d4" stroke-linecap="round" stroke-linejoin="round" stroke-width="3.481"/>
            <line id="Line_3" data-name="Line 3" x2="16.13" transform="translate(0 7.223)" fill="none" stroke="#c4d0d4" stroke-linecap="round" stroke-linejoin="round" stroke-width="3.481"/>
            <line id="Line_4" data-name="Line 4" x2="14.555" transform="translate(13.089 3.796)" fill="none" stroke="#c4d0d4" stroke-linecap="round" stroke-linejoin="round" stroke-width="3.481"/>
          </g>
        </g>
        <g id="Group_95" data-name="Group 95" transform="translate(7.443 43.031)">
          <g id="Group_92" data-name="Group 92">
            <path id="Rectangle_109" data-name="Rectangle 109" d="M6.987,0H38.133a0,0,0,0,1,0,0V6.987a6.987,6.987,0,0,1-6.987,6.987H6.987A6.987,6.987,0,0,1,0,6.987v0A6.987,6.987,0,0,1,6.987,0Z" transform="translate(38.133 13.974) rotate(180)" fill="#dbe9ed"/>
          </g>
          <g id="Group_94" data-name="Group 94" transform="translate(5.244 3.692)">
            <g id="Group_93" data-name="Group 93">
              <line id="Line_5" data-name="Line 5" x2="22.539" transform="translate(5.905)" fill="none" stroke="#e6f7f7" stroke-linecap="round" stroke-linejoin="round" stroke-width="3.481"/>
              <line id="Line_6" data-name="Line 6" x2="7.658" transform="translate(0 3.796)" fill="none" stroke="#e6f7f7" stroke-linecap="round" stroke-linejoin="round" stroke-width="3.481"/>
              <line id="Line_7" data-name="Line 7" x2="21.984" transform="translate(6.204 7.223)" fill="none" stroke="#e6f7f7" stroke-linecap="round" stroke-linejoin="round" stroke-width="3.481"/>
              <line id="Line_8" data-name="Line 8" x2="5.364" transform="translate(23.08 3.796)" fill="none" stroke="#e6f7f7" stroke-linecap="round" stroke-linejoin="round" stroke-width="3.481"/>
              <line id="Line_9" data-name="Line 9" x2="5.364" transform="translate(12.489 3.796)" fill="none" stroke="#e6f7f7" stroke-linecap="round" stroke-linejoin="round" stroke-width="3.481"/>
            </g>
          </g>
        </g>
        <g id="Group_98" data-name="Group 98" transform="translate(16.7 68.95)">
          <g id="Group_96" data-name="Group 96">
            <path id="Path_255" data-name="Path 255" d="M236.723,337.05H205.577a6.987,6.987,0,0,1-6.987-6.987h0a6.987,6.987,0,0,1,6.987-6.987h24.158a6.987,6.987,0,0,1,6.987,6.987Z" transform="translate(-198.59 -323.076)" fill="#dcf7f7"/>
          </g>
          <g id="Group_97" data-name="Group 97" transform="translate(5.503 3.192)">
            <line id="Line_10" data-name="Line 10" x2="22.539" stroke-width="3.481" stroke="#c4d0d4" stroke-linecap="round" stroke-linejoin="round" fill="none"/>
            <line id="Line_11" data-name="Line 11" x2="7.658" transform="translate(0 3.795)" fill="none" stroke="#c4d0d4" stroke-linecap="round" stroke-linejoin="round" stroke-width="3.481"/>
            <line id="Line_12" data-name="Line 12" x2="16.13" transform="translate(0 7.223)" fill="none" stroke="#c4d0d4" stroke-linecap="round" stroke-linejoin="round" stroke-width="3.481"/>
            <line id="Line_13" data-name="Line 13" x2="14.555" transform="translate(13.089 3.795)" fill="none" stroke="#c4d0d4" stroke-linecap="round" stroke-linejoin="round" stroke-width="3.481"/>
          </g>
        </g>
        <g id="Group_102" data-name="Group 102" transform="translate(7.443 94.997)">
          <g id="Group_99" data-name="Group 99">
            <path id="Rectangle_110" data-name="Rectangle 110" d="M6.987,0H38.133a0,0,0,0,1,0,0V6.987a6.987,6.987,0,0,1-6.987,6.987H6.987A6.987,6.987,0,0,1,0,6.987v0A6.987,6.987,0,0,1,6.987,0Z" transform="translate(38.133 13.974) rotate(-180)" fill="#dbe9ed"/>
          </g>
          <g id="Group_101" data-name="Group 101" transform="translate(5.244 3.692)">
            <g id="Group_100" data-name="Group 100">
              <line id="Line_14" data-name="Line 14" x2="22.539" transform="translate(5.905)" fill="none" stroke="#e6f7f7" stroke-linecap="round" stroke-linejoin="round" stroke-width="3.481"/>
              <line id="Line_15" data-name="Line 15" x2="7.658" transform="translate(0 3.795)" fill="none" stroke="#e6f7f7" stroke-linecap="round" stroke-linejoin="round" stroke-width="3.481"/>
              <line id="Line_16" data-name="Line 16" x2="21.984" transform="translate(6.204 7.223)" fill="none" stroke="#e6f7f7" stroke-linecap="round" stroke-linejoin="round" stroke-width="3.481"/>
              <line id="Line_17" data-name="Line 17" x2="5.364" transform="translate(23.08 3.795)" fill="none" stroke="#e6f7f7" stroke-linecap="round" stroke-linejoin="round" stroke-width="3.481"/>
              <line id="Line_18" data-name="Line 18" x2="5.364" transform="translate(12.489 3.795)" fill="none" stroke="#e6f7f7" stroke-linecap="round" stroke-linejoin="round" stroke-width="3.481"/>
            </g>
          </g>
        </g>
        <g id="Group_103" data-name="Group 103" transform="translate(3.319 2.641)" opacity="0.05">
          <path id="Path_256" data-name="Path 256" d="M224.1,190.7,171.79,243.011V209.854l15.987-15.987a3.133,3.133,0,0,0,1.4.324h20.861a3.234,3.234,0,0,0,3.24-3.233v-.683H222A5.378,5.378,0,0,1,224.1,190.7Z" transform="translate(-171.79 -190.275)" fill="#00a1b3"/>
          <path id="Path_257" data-name="Path 257" d="M227.428,198.769v8.163L171.79,262.57V251.485L226.879,196.4A5.349,5.349,0,0,1,227.428,198.769Z" transform="translate(-171.79 -193.34)" fill="#00a1b3"/>
          <path id="Path_258" data-name="Path 258" d="M227.428,298.953V332.11l-32.657,32.657H177.22a5.428,5.428,0,0,1-5.43-5.43V354.59Z" transform="translate(-171.79 -244.689)" fill="#00a1b3"/>
          <path id="Path_259" data-name="Path 259" d="M255.9,376.191v11.085L239.732,403.44H228.647Z" transform="translate(-200.258 -283.361)" fill="#00a1b3"/>
        </g>
      </g>
      <g id="Group_117" data-name="Group 117" transform="translate(5.967 0)">
        <path id="Path_260" data-name="Path 260" d="M214.243,217.353l-9.275-3.128a8.971,8.971,0,0,1,.5-2.042l.349.045-.067-.942-.335-.027L204.9,189.75l-6.953-4.038-10.764,4.038-2.4,21.357h-.159l-.081,1.123.349-.045a8.961,8.961,0,0,1,.5,2.042l-9.275,3.128s-2.616-3.246,4.725-4.667l.4-.049-.117-1.562-.295,0-2.3-24.612a3.874,3.874,0,0,1,.149-1.471H213.4a3.735,3.735,0,0,1,.412,2.49l-4.459,24.1-.154-.009-.082,1.073.4.049C216.859,214.108,214.243,217.353,214.243,217.353Z" transform="translate(-168.456 -124.176)" opacity="0.1"/>
        <g id="Group_116" data-name="Group 116">
          <g id="Group_105" data-name="Group 105" transform="translate(27.949 4.59)">
            <path id="Path_261" data-name="Path 261" d="M218.774,91.079l12.414-7.531-.139,3.465L217.205,74.542l1.782-2.154,14.842,11.265a2.105,2.105,0,0,1,.4,2.949,2.083,2.083,0,0,1-.349.361l-.194.155-11.316,9.1Z" transform="translate(-217.205 -72.388)" fill="#e8a37d"/>
            <path id="Path_262" data-name="Path 262" d="M231.324,102.762l-7.317,6.132a3.914,3.914,0,0,1-5.586-1.1h0a3.913,3.913,0,0,1,1.669-5.633l8.157-4.087Z" transform="translate(-217.513 -85.246)" fill="#7fbbf7"/>
          </g>
          <path id="Path_263" data-name="Path 263" d="M196.752,75.912a9.081,9.081,0,0,0,.071,5.512,1.537,1.537,0,0,0,.29.563.587.587,0,0,0,.572.2c.267-.078.393-.377.471-.644a8.789,8.789,0,0,0-.511-6.245C197.252,74.5,196.9,75.446,196.752,75.912Z" transform="translate(-178.819 -69.1)" fill="#522e2e"/>
          <g id="Group_108" data-name="Group 108" transform="translate(4.039 48.794)">
            <g id="Group_106" data-name="Group 106" transform="translate(0 36.616)">
              <path id="Path_264" data-name="Path 264" d="M180.074,234.547l.264,3.532,3.172-.127.255-3.7Z" transform="translate(-174.704 -234.251)" fill="#e8a37d"/>
              <path id="Path_265" data-name="Path 265" d="M178.545,239.458a8.9,8.9,0,0,1,.5,2.039l-9.276,3.128s-2.616-3.244,4.727-4.666Z" transform="translate(-169.32 -236.858)" fill="#4e587f"/>
            </g>
            <g id="Group_107" data-name="Group 107" transform="translate(29.305 36.616)">
              <path id="Path_266" data-name="Path 266" d="M233.04,234.547l-.264,3.532-3.172-.127-.255-3.7Z" transform="translate(-228.68 -234.251)" fill="#e8a37d"/>
              <path id="Path_267" data-name="Path 267" d="M228.514,239.458a8.92,8.92,0,0,0-.5,2.039l9.276,3.128s2.617-3.244-4.727-4.666Z" transform="translate(-228.01 -236.858)" fill="#4e587f"/>
            </g>
            <path id="Path_268" data-name="Path 268" d="M198.7,172.7l-17.273,6.474,2.635-4.057L181.3,199.681l-3.952-.037-2.3-24.612a3.806,3.806,0,0,1,1.967-3.7l.667-.361,16.206-8.81Z" transform="translate(-172.178 -161.543)" fill="#963e42"/>
            <path id="Path_269" data-name="Path 269" d="M209.449,160.919l12.889,10.439.619.5a3.727,3.727,0,0,1,1.317,3.568l-4.457,24.1-3.94-.314-.587-24.5,1.935,4.068-14.346-8.325Z" transform="translate(-186.123 -160.919)" fill="#963e42"/>
          </g>
          <g id="Group_109" data-name="Group 109" transform="translate(18.262 3.546)">
            <path id="Path_270" data-name="Path 270" d="M210.232,101.981H205.6l-1.549-10.838h6.877Z" transform="translate(-200.93 -80.735)" fill="#e8a37d"/>
            <path id="Path_271" data-name="Path 271" d="M197.947,80.385c0,.051.007.1.011.154.094,1.207.134,2.59.956,3.514a3.894,3.894,0,0,0,2.407,1.168,6.308,6.308,0,0,0,5.63-2.534,10.015,10.015,0,0,0,1.782-5.762,6.707,6.707,0,0,0-1.367-4.864c-1.95-2.146-6.211-2.459-8.2-.245a5.891,5.891,0,0,0-1.275,3.608A28.833,28.833,0,0,0,197.947,80.385Z" transform="translate(-197.805 -70.298)" fill="#e8a37d"/>
          </g>
          <path id="Path_272" data-name="Path 272" d="M191.869,108.684a4.791,4.791,0,0,1,3.109-4.27l5.7-2.082,3.522,1.286a10.836,10.836,0,0,1,4.046,2.192c1.051,1.052,1.293,2.828,1.332,4.237.081,2.921-.466,10.89.028,17.555a52.721,52.721,0,0,0,1.913,10.542.741.741,0,0,1-.3.65c-.958.7-4.121,2.588-10.545,2.588-.943,0-1.816-.041-2.622-.112-4.683-.415-7.106-1.875-7.923-2.476a.742.742,0,0,1-.308-.5l1.089-5.114a35.059,35.059,0,0,0,.667-9.963l-.545-7.16a8.333,8.333,0,0,1,.023-1.566c.008-.077.018-.15.028-.223Z" transform="translate(-175.549 -82.791)" fill="#7fbbf7"/>
          <path id="Path_273" data-name="Path 273" d="M208.709,104.981h0a2.821,2.821,0,0,0,2.821-2.821V99.123h-5.641v3.037A2.82,2.82,0,0,0,208.709,104.981Z" transform="translate(-183.591 -81.184)" fill="#e8a37d"/>
          <path id="Path_274" data-name="Path 274" d="M216.474,78.933" transform="translate(-188.89 -71.075)" fill="none"/>
          <path id="Path_275" data-name="Path 275" d="M224.485,113.311" transform="translate(-192.901 -88.288)" fill="none"/>
          <g id="Group_110" data-name="Group 110" transform="translate(18.429 42.784)">
            <path id="Path_276" data-name="Path 276" d="M198.139,160.966a17.416,17.416,0,0,0,6.836-12.084" transform="translate(-198.139 -148.882)" fill="none" stroke="#6493c2" stroke-miterlimit="10" stroke-width="1.813"/>
            <path id="Path_277" data-name="Path 277" d="M217.8,167.064a8.544,8.544,0,0,1-1.361-8.009" transform="translate(-207.072 -153.975)" fill="none" stroke="#6493c2" stroke-miterlimit="10" stroke-width="1.813"/>
          </g>
          <g id="Group_111" data-name="Group 111" transform="translate(18.593 9.574)">
            <path id="Path_278" data-name="Path 278" d="M203.06,91.26l-2.533.02s.285,1.277,1.316,1.234S203.06,91.26,203.06,91.26Z" transform="translate(-199.499 -86.821)" fill="#fff"/>
            <path id="Path_279" data-name="Path 279" d="M202.072,84.972a1.154,1.154,0,0,1,.171.7.874.874,0,0,1-.136.374,1.265,1.265,0,0,0-.143.246.463.463,0,0,0,.062.427.592.592,0,0,0,.518.207.564.564,0,0,1-.729.022.7.7,0,0,1-.224-.8c.136-.29.295-.377.35-.546A3.776,3.776,0,0,0,202.072,84.972Z" transform="translate(-200.01 -83.673)" fill="#6e4132"/>
            <path id="Path_280" data-name="Path 280" d="M206.11,83.307a4.036,4.036,0,0,0-.322-.4.512.512,0,0,0-.325-.14.446.446,0,0,0-.31.145,1.7,1.7,0,0,0-.294.406.717.717,0,0,1,.039-.586.643.643,0,0,1,.571-.364.673.673,0,0,1,.57.357A.872.872,0,0,1,206.11,83.307Z" transform="translate(-201.645 -82.37)" fill="#6e4132"/>
            <path id="Path_281" data-name="Path 281" d="M198.488,83.307a.875.875,0,0,1,.07-.58.674.674,0,0,1,.57-.357.643.643,0,0,1,.571.364.715.715,0,0,1,.039.586,1.709,1.709,0,0,0-.294-.406.447.447,0,0,0-.311-.145.511.511,0,0,0-.324.14A4.034,4.034,0,0,0,198.488,83.307Z" transform="translate(-198.468 -82.37)" fill="#6e4132"/>
          </g>
          <g id="Group_112" data-name="Group 112" transform="translate(16.494)">
            <path id="Path_282" data-name="Path 282" d="M194.581,69.206a2.69,2.69,0,0,0,2.01,1.9c1.735.336,3.235-.978,4.981-.871a2.513,2.513,0,0,1,2.008,1.18,5.185,5.185,0,0,1,.469,2.459,7.023,7.023,0,0,0,.5,2.565A2.507,2.507,0,0,0,206.364,78c1.095.138,1.6-.706,1.613-1.7s-.1-2.082,0-3.051.3-1.932.436-2.817a5.008,5.008,0,0,0-.031-2.39,2.03,2.03,0,0,0-1.751-1.478c-.619-.047-1.154.392-1.708.1-.766-.41-.8-1.649-1.669-1.849-.668-.155-1.257.6-1.878.408s-.664-.965-1.26-1.094c-.889-.193-1.384.968-2.271.8-.429-.079-.582-.558-.758-.9s-.4-.8-.821-.824a.987.987,0,0,0-.908.557A6.235,6.235,0,0,0,194.581,69.206Z" transform="translate(-194.264 -63.196)" fill="#623737"/>
          </g>
          <g id="Group_113" data-name="Group 113" transform="translate(13.173 56.639)">
            <path id="Path_283" data-name="Path 283" d="M187.613,176.63a3.583,3.583,0,0,0,3.68,1.3" transform="translate(-187.613 -176.63)" fill="none" stroke="#cf555b" stroke-miterlimit="10" stroke-width="1.6"/>
            <path id="Path_284" data-name="Path 284" d="M230.6,176.63a3.583,3.583,0,0,1-3.68,1.3" transform="translate(-207.294 -176.63)" fill="none" stroke="#cf555b" stroke-miterlimit="10" stroke-width="1.6"/>
            <path id="Path_285" data-name="Path 285" d="M213.877,183.6a1.9,1.9,0,0,0-.072-2.443" transform="translate(-200.727 -178.898)" fill="none" stroke="#cf555b" stroke-miterlimit="10" stroke-width="0.8"/>
          </g>
          <path id="Path_286" data-name="Path 286" d="M207.117,97.445a4.685,4.685,0,0,0,2.626-.772,5.332,5.332,0,0,0,1.87-2,10.172,10.172,0,0,1-2.039,1.74A7.838,7.838,0,0,1,207.117,97.445Z" transform="translate(-184.205 -78.954)" fill="#6e4132"/>
          <g id="Group_115" data-name="Group 115" transform="translate(0 10.435)">
            <path id="Path_287" data-name="Path 287" d="M180.88,111.409l-11.364,5.359-.26.122a2.083,2.083,0,0,1-2.772-1,2.185,2.185,0,0,1-.163-.5l-2.663-14.089,2.714-.669,4.183,13.714-3.194-1.374,10.418-7.022Z" transform="translate(-162.446 -92.377)" fill="#e8a37d"/>
            <g id="Group_114" data-name="Group 114">
              <path id="Path_288" data-name="Path 288" d="M167.278,92.36a3.305,3.305,0,0,0-.669-2.168,5.7,5.7,0,0,1-1.01-1.242c-.145-.349-.156-.769-.42-1.038a.44.44,0,0,0-.451-.134c-.228.088-.266.388-.267.633a20.849,20.849,0,0,0,.608,6.212c.086.284.22.6.5.689a.675.675,0,0,0,.56-.115,2.494,2.494,0,0,0,.775-1.116A5.254,5.254,0,0,0,167.278,92.36Z" transform="translate(-162.846 -85.928)" fill="#e8a37d"/>
              <path id="Path_289" data-name="Path 289" d="M164.561,92.86h0a.5.5,0,0,0,.379-.6l-1.763-7.774a.5.5,0,0,0-.6-.378h0a.5.5,0,0,0-.378.6l1.762,7.774A.5.5,0,0,0,164.561,92.86Z" transform="translate(-161.709 -84.094)" fill="#d1d1d1"/>
              <path id="Path_290" data-name="Path 290" d="M163.72,94.12a.971.971,0,0,0-.41-.828,1.137,1.137,0,0,0-.355-1.4,1.647,1.647,0,0,0-.317-1.439,1.009,1.009,0,0,0-.439-.327.58.58,0,0,0-.529.066.836.836,0,0,0-.256.435,4.852,4.852,0,0,0-.1,2.224,13.779,13.779,0,0,0,.595,2.164,4.852,4.852,0,0,0,.4.962.68.68,0,0,0,.292.3.552.552,0,0,0,.531-.1.871.871,0,0,0,.291-1.012c-.042-.11-.155-.205-.1-.313s.207-.193.273-.31A.946.946,0,0,0,163.72,94.12Z" transform="translate(-161.231 -87.099)" fill="#e8a37d"/>
            </g>
            <path id="Path_291" data-name="Path 291" d="M180.814,118.71l10.109-4.146a3.913,3.913,0,0,0,1.944-5.352h0a3.913,3.913,0,0,0-5.684-1.485l-8.466,5.567Z" transform="translate(-169.986 -95.591)" fill="#7fbbf7"/>
          </g>
          <path id="Path_292" data-name="Path 292" d="M215.114,83.789a1.611,1.611,0,0,0-.028-1.447,1.235,1.235,0,0,0-2.061-.09,2.156,2.156,0,0,0-.313,1.249,2.507,2.507,0,0,0,.118.91.931.931,0,0,0,1.306.585A2.644,2.644,0,0,0,215.114,83.789Z" transform="translate(-187.007 -72.481)" fill="#e8a37d"/>
          <path id="Path_293" data-name="Path 293" d="M214.54,83.213a.85.85,0,0,1,.522.781,1.191,1.191,0,0,1-.3.961.741.741,0,0,1-.518.211.574.574,0,0,1-.494-.279.463.463,0,0,1,.045-.542.354.354,0,0,1,.473-.04.287.287,0,0,0-.322.457.416.416,0,0,0,.608-.023,1.116,1.116,0,0,0,.278-.741A.909.909,0,0,0,214.54,83.213Z" transform="translate(-187.491 -73.218)" fill="#6e4132"/>
        </g>
      </g>
      <g id="Group_127" data-name="Group 127" transform="translate(62.002 79.745)">
        <path id="Path_294" data-name="Path 294" d="M309.769,227.024a3.418,3.418,0,0,1,1.31,2.65c-.01,1.415-.952,2.815-.83,4.219.112,1.295,1.11,2.386,1.444,3.644a5.439,5.439,0,0,1-1.232,4.526,20.491,20.491,0,0,1-3.926,3.655,4.686,4.686,0,0,1-2.108,1.094,3.363,3.363,0,0,1-3.084-1.51,11.706,11.706,0,0,1-1.831-4.987,20.645,20.645,0,0,1-.459-5.537,9.763,9.763,0,0,1,2.067-5.377,9.294,9.294,0,0,1,3.074-2.451,5.99,5.99,0,0,1,3.492-.9A4.924,4.924,0,0,1,309.769,227.024Z" transform="translate(-286.249 -224.457)" fill="#ebc94a"/>
        <g id="Group_118" data-name="Group 118" transform="translate(16.344 10.06)">
          <path id="Path_295" data-name="Path 295" d="M309.862,260.122l11.83,8.1-2.92.994,6.008-13.244,2.414.952-4.656,13.778a1.933,1.933,0,0,1-2.709,1.1l-.212-.109-12.741-6.58Z" transform="translate(-306.532 -249.523)" fill="#e48868"/>
          <path id="Path_296" data-name="Path 296" d="M317.347,268.039a.313.313,0,0,1,.078.19,4.1,4.1,0,0,1-.679,2.467c-.308.46-.706.853-1.014,1.313a2.486,2.486,0,0,0-.425,1.051.292.292,0,0,1-.448.213c-2.088-1.316-4.2-2.534-6.287-3.866a5.639,5.639,0,0,1-1.963-1.744,4.308,4.308,0,0,1,.017-3.735,2.5,2.5,0,0,1,.686-.967c1.11-.926,2.385-.24,3.423.414l3,1.889A15.743,15.743,0,0,1,317.347,268.039Z" transform="translate(-306.188 -252.795)" fill="#b56244"/>
          <path id="Path_297" data-name="Path 297" d="M342.2,249.559a2.828,2.828,0,0,1,.815-1.762,4.872,4.872,0,0,0,1-.938c.162-.279.22-.635.475-.832a.377.377,0,0,1,.4-.062c.183.1.181.36.154.567a17.856,17.856,0,0,1-1.224,5.2c-.105.231-.255.484-.5.526a.576.576,0,0,1-.462-.161,2.129,2.129,0,0,1-.53-1.036A4.5,4.5,0,0,1,342.2,249.559Z" transform="translate(-324.211 -244.493)" fill="#e48868"/>
          <path id="Path_298" data-name="Path 298" d="M344.093,250.278h0a.43.43,0,0,1-.253-.553l2.381-6.393a.43.43,0,0,1,.553-.253h0a.43.43,0,0,1,.253.553l-2.381,6.393A.43.43,0,0,1,344.093,250.278Z" transform="translate(-325.026 -243.053)" fill="#d1d1d1"/>
          <path id="Path_299" data-name="Path 299" d="M345.384,251.412a.832.832,0,0,1,.442-.656.973.973,0,0,1,.461-1.144,1.409,1.409,0,0,1,.433-1.184.863.863,0,0,1,.41-.227.5.5,0,0,1,.441.117.715.715,0,0,1,.168.4,4.159,4.159,0,0,1-.168,1.9,11.765,11.765,0,0,1-.751,1.768,4.135,4.135,0,0,1-.452.769.585.585,0,0,1-.282.218.473.473,0,0,1-.439-.146.746.746,0,0,1-.131-.892c.048-.088.155-.156.121-.254s-.153-.187-.2-.293A.814.814,0,0,1,345.384,251.412Z" transform="translate(-325.812 -245.625)" fill="#e48868"/>
        </g>
        <g id="Group_119" data-name="Group 119" transform="translate(7.399 49.247)">
          <path id="Path_300" data-name="Path 300" d="M298.346,321.535c.744,2.132,1.444,4.279,2.167,6.419l2.095,6.446c.705,2.146,1.374,4.305,2.06,6.458l2.018,6.474.143.459a1.354,1.354,0,0,1,.05.238l.8,7.222c.262,2.408.549,4.812.783,7.226l.734,7.235c.219,2.416.462,4.828.659,7.249l-3.607.669c-.685-2.33-1.323-4.669-1.985-7l-1.91-7.017c-.647-2.337-1.241-4.684-1.86-7.025l-1.842-7.029.193.7-2.71-6.216c-.89-2.077-1.8-4.148-2.668-6.232l-2.634-6.244c-.853-2.091-1.729-4.173-2.561-6.272Z" transform="translate(-288.273 -321.535)" fill="#e48868"/>
          <path id="Path_301" data-name="Path 301" d="M304.4,371.12l4.8-1.362,0-.047-.734-7.235c-.235-2.414-.522-4.817-.783-7.226l-.8-7.222a1.354,1.354,0,0,0-.05-.238l-.143-.459-2.018-6.474c-.687-2.153-1.355-4.313-2.06-6.458l-2.095-6.446c-.723-2.14-1.423-4.287-2.167-6.419l-10.073,3.753c.832,2.1,1.709,4.181,2.561,6.272l2.634,6.244c.871,2.084,1.778,4.155,2.668,6.232l2.685,6.157,1.675,6.391c.62,2.342,1.214,4.689,1.86,7.025l1.91,7.017Z" transform="translate(-288.273 -321.535)" fill="#373366"/>
          <path id="Path_302" data-name="Path 302" d="M323.281,431.373a9.3,9.3,0,0,0,.162,2.184l10.207.087s1.54-4.063-6.2-3.088Z" transform="translate(-305.798 -376.045)" fill="#963e42"/>
        </g>
        <g id="Group_120" data-name="Group 120" transform="translate(14.595 50.148)">
          <path id="Path_303" data-name="Path 303" d="M314.265,323.338l10.912,24.545.2.451a3.629,3.629,0,0,1-.264,3.406l-16.468,25.51-3.227-1.745,12.336-27.745-.064,3.857-13.046-23.481Z" transform="translate(-303.667 -323.338)" fill="#e48868"/>
          <path id="Path_304" data-name="Path 304" d="M325.378,348.334l-.2-.451-10.912-24.545-9.619,4.8,12.128,21.83-8.694,19.554,3.878,2.6,13.155-20.379A3.628,3.628,0,0,0,325.378,348.334Z" transform="translate(-303.667 -323.338)" fill="#373366"/>
          <path id="Path_305" data-name="Path 305" d="M304.454,426.621s-1.827,2.016-1.766,2.825a40.852,40.852,0,0,0,3.282,4.854l6.5,0a3.734,3.734,0,0,0-4.435-3.039s-.115-2.027-.141-2.153S304.454,426.621,304.454,426.621Z" transform="translate(-302.686 -375.051)" fill="#963e42"/>
        </g>
        <g id="Group_121" data-name="Group 121" transform="translate(12.206 3.707)">
          <path id="Path_306" data-name="Path 306" d="M301.683,259.831l4.292-.319.688-10.139-6.366.473Z" transform="translate(-299.1 -239.864)" fill="#e48868"/>
          <path id="Path_307" data-name="Path 307" d="M308.193,239.336c0,.047,0,.1,0,.143a5.424,5.424,0,0,1-.643,3.319,3.616,3.616,0,0,1-2.147,1.247,5.856,5.856,0,0,1-5.386-1.958,9.3,9.3,0,0,1-2.046-5.211,6.223,6.223,0,0,1,.93-4.6c1.657-2.121,5.58-2.7,7.572-.791a5.473,5.473,0,0,1,1.429,3.252A26.781,26.781,0,0,1,308.193,239.336Z" transform="translate(-297.9 -230.328)" fill="#e48868"/>
          <path id="Path_308" data-name="Path 308" d="M306.464,255.728a4.342,4.342,0,0,1-2.485-.534,4.943,4.943,0,0,1-1.869-1.726,9.452,9.452,0,0,0,2.006,1.47A7.281,7.281,0,0,0,306.464,255.728Z" transform="translate(-300.008 -241.914)" fill="#6e4132"/>
        </g>
        <path id="Path_309" data-name="Path 309" d="M282.119,232.1a3.236,3.236,0,0,1-1.388,1.549,2.98,2.98,0,0,0-1.108,4.342c.487.711,1.269,1.192,1.7,1.937a2.6,2.6,0,0,1-.041,2.62,20.407,20.407,0,0,1-1.431,1.588,3.479,3.479,0,0,0-.19,3.9c.766,1.207,2.306,1.974,2.53,3.386.177,1.113-.558,2.149-.79,3.252a3.779,3.779,0,0,0,.892,3.272,3.864,3.864,0,0,0,3.174,1.3c.755-5.161,3.964-9.6,4.827-14.747a21.955,21.955,0,0,0-.154-5.174,6.2,6.2,0,0,1,3.974-7.235,19.932,19.932,0,0,0,3.319-1.782,4.377,4.377,0,0,0,1.9-3.122,9.044,9.044,0,0,0-.053-2.014,2.927,2.927,0,0,0-1.164-1.98,2.251,2.251,0,0,0-2.157-.04c-.572.306-1,.855-1.594,1.1a3.609,3.609,0,0,1-2.575-.249,3.952,3.952,0,0,0-2.575-.336,3.887,3.887,0,0,0-1.948,2.39,3.858,3.858,0,0,1-1.955,2.382,17.991,17.991,0,0,0-2,.365,2.118,2.118,0,0,0-1.075,1.474C282.094,230.9,282.391,231.531,282.119,232.1Z" transform="translate(-276.283 -222.905)" fill="#fad850"/>
        <g id="Group_122" data-name="Group 122" transform="translate(6.694 18.109)">
          <path id="Path_310" data-name="Path 310" d="M305.983,292.756c-2.191,1.01-11.2,4.7-18.759,1.245a.638.638,0,0,1-.358-.661l2.557-8.026a2.726,2.726,0,0,0,.118-1.028l-1.426-17.953a4.951,4.951,0,0,1,1.186-3.4,12.436,12.436,0,0,1,4.88-3.757s1.127,2.105,5.337,1.159c0,0,.751.883,1.661,2.105,1.372,1.837,3.11,4.431,3.173,5.875.032.7-.593,2.123-.828,3.734-.837,5.821-1.064,11.6,1.865,17.265a14.885,14.885,0,0,1,.933,2.7A.619.619,0,0,1,305.983,292.756Z" transform="translate(-286.861 -259.173)" fill="#cf714d"/>
        </g>
        <path id="Path_311" data-name="Path 311" d="M300.4,245.026a1.494,1.494,0,0,1-.074-1.341,1.147,1.147,0,0,1,1.9-.225,2,2,0,0,1,.375,1.134,2.316,2.316,0,0,1-.046.85.864.864,0,0,1-1.169.632A2.454,2.454,0,0,1,300.4,245.026Z" transform="translate(-286.844 -232.993)" fill="#e48868"/>
        <path id="Path_312" data-name="Path 312" d="M312.009,251.043l2.346-.155s-.176,1.2-1.133,1.232S312.009,251.043,312.009,251.043Z" transform="translate(-292.758 -236.916)" fill="#fff"/>
        <path id="Path_313" data-name="Path 313" d="M314.051,245.172a3.261,3.261,0,0,0,.165.572c.063.153.216.223.361.482a.652.652,0,0,1-.151.756.527.527,0,0,1-.677.029.542.542,0,0,0,.465-.227.428.428,0,0,0,.027-.4,1.169,1.169,0,0,0-.149-.219.809.809,0,0,1-.152-.337A1.086,1.086,0,0,1,314.051,245.172Z" transform="translate(-293.63 -234.054)" fill="#6e4132"/>
        <path id="Path_314" data-name="Path 314" d="M309.833,244.122a.825.825,0,0,1,.025-.541.624.624,0,0,1,.5-.37.6.6,0,0,1,.553.3.674.674,0,0,1,.077.54c-.184-.3-.422-.5-.6-.469a.473.473,0,0,0-.291.152A3.435,3.435,0,0,0,309.833,244.122Z" transform="translate(-291.652 -233.071)" fill="#6e4132"/>
        <path id="Path_315" data-name="Path 315" d="M316.886,243.6a3.388,3.388,0,0,0-.326-.347.473.473,0,0,0-.31-.107c-.177,0-.382.231-.521.552a.672.672,0,0,1,0-.545.6.6,0,0,1,.5-.377.625.625,0,0,1,.552.291A.825.825,0,0,1,316.886,243.6Z" transform="translate(-294.592 -232.854)" fill="#6e4132"/>
        <path id="Path_316" data-name="Path 316" d="M301.949,244.425a.844.844,0,0,0-.213.746,1.034,1.034,0,0,0,.309.667.386.386,0,0,0,.564-.02.267.267,0,0,0-.329-.4.329.329,0,0,1,.441,0,.43.43,0,0,1,.079.5.534.534,0,0,1-.438.292.687.687,0,0,1-.494-.159,1.1,1.1,0,0,1-.348-.869A.787.787,0,0,1,301.949,244.425Z" transform="translate(-287.507 -233.68)" fill="#6e4132"/>
        <g id="Group_124" data-name="Group 124" transform="translate(0 19.484)">
          <path id="Path_317" data-name="Path 317" d="M288.658,267.707l-11.539,14.278.384-1.345.606,17.951-2.587.192-2.055-17.843a1.786,1.786,0,0,1,.283-1.191l.1-.153,10.105-15.326Z" transform="translate(-273.455 -263.099)" fill="#e48868"/>
          <g id="Group_123" data-name="Group 123" transform="translate(1.264 33.954)">
            <path id="Path_318" data-name="Path 318" d="M278.923,329.949a8.3,8.3,0,0,0,.472,1.226,9.933,9.933,0,0,0,.823,1.135,5.651,5.651,0,0,1,.715,1.379,2.926,2.926,0,0,1,.207,1.164.315.315,0,0,1-.119.292.425.425,0,0,1-.519-.077,3.4,3.4,0,0,1-.349-.486.536.536,0,0,0-.442-.275c.143.778.321,1.544.463,2.323.057.314.109.637.141.956a.906.906,0,0,1-.042.476.315.315,0,0,1-.38.205c-.17-.059-.22-.254-.251-.426-.1-.561-.206-1.162-.325-1.711-.038-.176-.069-.6-.3-.459.106.742.16,1.518.214,2.255a1.511,1.511,0,0,1-.117.8c-.113.19-.229.218-.37.166s-.152-.207-.169-.344c-.112-.868-.163-1.76-.325-2.626a.511.511,0,0,0-.074-.207c-.041-.057-.134-.118-.186-.051s-.016.25-.013.317c.012.247.053.466.044.7a11.388,11.388,0,0,1-.149,1.362.985.985,0,0,1-.1.346.311.311,0,0,1-.268.188.318.318,0,0,1-.291-.225.851.851,0,0,1-.028-.4,7.129,7.129,0,0,0-.175-2.414.612.612,0,0,0-.039-.176c-.028-.045-.188-.119-.2-.06a7.854,7.854,0,0,1-.341,2.085.313.313,0,0,1-.215.16.133.133,0,0,1-.151-.093.507.507,0,0,1-.017-.2c0-.459-.08-1-.047-1.445s-.052-.858-.01-1.266.055-.751.091-1.142a5.985,5.985,0,0,1,.6-2.034,2.931,2.931,0,0,0,.114-1.249A6.371,6.371,0,0,1,278.923,329.949Z" transform="translate(-275.986 -329.926)" fill="#e48868"/>
          </g>
          <path id="Path_319" data-name="Path 319" d="M280.518,275.943a3.58,3.58,0,0,1,1.853,1.526.271.271,0,0,0,.473.035,51.318,51.318,0,0,1,6.124-7.527,7.26,7.26,0,0,0,2.128-2.992,4.215,4.215,0,0,0-1.736-4.3,3.485,3.485,0,0,0-2.285-.751,3.524,3.524,0,0,0-2.376,1.42,12.149,12.149,0,0,0-1.377,2.485,49.134,49.134,0,0,1-2.453,4.594q-.679,1.125-1.418,2.212c-.273.4-1.4,1.537-1.259,2.023C278.378,275.3,279.989,275.711,280.518,275.943Z" transform="translate(-275.821 -261.926)" fill="#cf714d"/>
        </g>
        <g id="Group_125" data-name="Group 125" transform="translate(10.463 53.081)">
          <path id="Path_320" data-name="Path 320" d="M294.41,336.6a3.722,3.722,0,0,0,1.866-3.475" transform="translate(-294.41 -331.171)" fill="none" stroke="#4d478f" stroke-miterlimit="10" stroke-width="0.907"/>
          <path id="Path_321" data-name="Path 321" d="M322.246,329.213a3.1,3.1,0,0,0,2.082.83" transform="translate(-308.347 -329.213)" fill="none" stroke="#4d478f" stroke-miterlimit="10" stroke-width="0.907"/>
          <path id="Path_322" data-name="Path 322" d="M310.007,332.768a24.515,24.515,0,0,1,1.289,4.105" transform="translate(-302.219 -330.993)" fill="none" stroke="#4d478f" stroke-miterlimit="10" stroke-width="0.907"/>
          <path id="Path_323" data-name="Path 323" d="M312.868,332.6a5.513,5.513,0,0,1,.614,1.69,1.6,1.6,0,0,1-.062,1,1.887,1.887,0,0,1-1.259.786" transform="translate(-303.297 -330.91)" fill="none" stroke="#4d478f" stroke-miterlimit="10" stroke-width="0.907"/>
          <path id="Path_324" data-name="Path 324" d="M315.411,345.718A38.239,38.239,0,0,1,318.9,355.2c-.684-1.549-1.268-3.123-1.854-4.7S315.9,347.34,315.411,345.718Z" transform="translate(-304.925 -337.477)" fill="#4d478f"/>
        </g>
        <g id="Group_126" data-name="Group 126" transform="translate(9.649 19.922)">
          <path id="Path_325" data-name="Path 325" d="M302.132,314.622a12.834,12.834,0,0,0,1.325-10.978" transform="translate(-297.462 -283.252)" fill="none" stroke="#b56244" stroke-miterlimit="10" stroke-width="1.813"/>
          <path id="Path_326" data-name="Path 326" d="M309.859,316.006a6.325,6.325,0,0,0,3.821,4.243" transform="translate(-301.331 -289.441)" fill="none" stroke="#b56244" stroke-miterlimit="10" stroke-width="1.813"/>
          <path id="Path_327" data-name="Path 327" d="M298.636,262.8a3.619,3.619,0,0,1,.857,4.952" transform="translate(-295.712 -262.803)" fill="none" stroke="#b56244" stroke-miterlimit="10" stroke-width="0.907"/>
          <path id="Path_328" data-name="Path 328" d="M292.779,283.169l2.163-3.421" transform="translate(-292.779 -271.287)" fill="none" stroke="#b56244" stroke-miterlimit="10" stroke-width="0.907"/>
        </g>
        <path id="Path_329" data-name="Path 329" d="M299.529,228.474a1.61,1.61,0,0,1,1.3-.376c.793.129,1.427.843,2.23.859a2.111,2.111,0,0,0,1.282-.512c.373-.285.705-.624,1.1-.875a1.681,1.681,0,0,1,1.337-.276,1.484,1.484,0,0,1,.955,1.441,3.019,3.019,0,0,1-.654,1.7,5.635,5.635,0,0,1-2.668,2.062,4.434,4.434,0,0,1-3.337-.132C299.855,231.785,298.128,229.71,299.529,228.474Z" transform="translate(-286.248 -225.078)" fill="#fadb62"/>
        <path id="Path_330" data-name="Path 330" d="M283.356,246.4a2.035,2.035,0,0,0,.116,1.614,11.73,11.73,0,0,0,.881,1.412,3.079,3.079,0,0,1,.575,1.541c.009.359-.084.715-.093,1.074a1.1,1.1,0,0,0,.39.957,1.046,1.046,0,0,0,.782.111,1.652,1.652,0,0,0,.989-.581,1.942,1.942,0,0,0,.288-1.586,5.942,5.942,0,0,0-.639-1.531,5.434,5.434,0,0,1-.618-1.538,3.413,3.413,0,0,1,.217-1.833,5.018,5.018,0,0,0,.3-.817.79.79,0,0,0-.535-1.021c-.418-.078-.568.244-.823.5C284.609,245.288,283.695,245.6,283.356,246.4Z" transform="translate(-278.353 -233.559)" fill="#fadb62"/>
      </g>
    </g>
    <g id="Group_153" data-name="Group 153" transform="translate(51.249 68.694)">
      <g id="Group_129" data-name="Group 129" transform="translate(29.44 33.977)">
        <path id="Path_331" data-name="Path 331" d="M128.228,163.585a3.682,3.682,0,0,0-4.79.685,2.235,2.235,0,0,0-.5,1.879,2.236,2.236,0,0,0-1.364-1.385,3.682,3.682,0,0,0-4.5,1.781c-1.166,2.739,1.065,5.225,3.232,6.6A15.4,15.4,0,0,0,122.8,174.4c.424.171.853.329,1.286.478.065.022.317.086.58.158a1.219,1.219,0,0,0,1.188-.315c.193-.194.38-.373.425-.425.3-.344.6-.694.88-1.053a15.431,15.431,0,0,0,1.539-2.322C129.894,168.65,130.6,165.384,128.228,163.585Z" transform="translate(-116.756 -162.981)" fill="#d57ff7"/>
      </g>
      <g id="Group_131" data-name="Group 131" transform="translate(158.879 32.834)">
        <g id="Group_130" data-name="Group 130">
          <path id="Path_332" data-name="Path 332" d="M392.968,166.779a.947.947,0,0,0-1.186-.623.947.947,0,1,0-.563-1.809l-.486.151-1.531.477-.955.3a.2.2,0,0,1-.255-.231,5.035,5.035,0,0,0-.068-2.749c-.529-1.463-1.128-1.878-1.868-1.428a1.043,1.043,0,0,0-.319,1.331l.242.775s-1.836,3.857-1.477,5.007l1.658,5.324a.53.53,0,0,0,.663.349l4.631-1.443,1.531-.477.486-.151a.947.947,0,0,0-.563-1.809.947.947,0,0,0-.563-1.809A.946.946,0,0,0,392.968,166.779Z" transform="translate(-380.229 -160.694)" fill="#7f95f7"/>
          <rect id="Rectangle_111" data-name="Rectangle 111" width="3.156" height="7.469" rx="1.578" transform="translate(0 7.453) rotate(-17.299)" fill="#7f95f7"/>
        </g>
      </g>
      <g id="Group_136" data-name="Group 136" transform="translate(0 72.427)">
        <g id="Group_132" data-name="Group 132">
          <circle id="Ellipse_38" data-name="Ellipse 38" cx="7.275" cy="7.275" r="7.275" transform="matrix(0.681, -0.733, 0.733, 0.681, 0, 10.659)" fill="#f7cf7f"/>
        </g>
        <g id="Group_133" data-name="Group 133" transform="translate(7.956 10.644)">
          <path id="Path_333" data-name="Path 333" d="M79.462,261.3a3.062,3.062,0,0,1-5.733,2.156Z" transform="translate(-73.729 -261.304)" fill="#3d331f"/>
        </g>
        <g id="Group_134" data-name="Group 134" transform="translate(5.177 7.935)">
          <path id="Path_334" data-name="Path 334" d="M70.68,256.723a1.3,1.3,0,1,1-1.674-.759A1.3,1.3,0,0,1,70.68,256.723Z" transform="translate(-68.163 -255.88)" fill="#3d331f"/>
        </g>
        <g id="Group_135" data-name="Group 135" transform="translate(11.154 5.688)">
          <path id="Path_335" data-name="Path 335" d="M82.651,252.223a1.3,1.3,0,1,1-1.674-.759A1.3,1.3,0,0,1,82.651,252.223Z" transform="translate(-80.134 -251.38)" fill="#3d331f"/>
        </g>
      </g>
      <g id="Group_141" data-name="Group 141" transform="translate(5.408 0)">
        <g id="Group_137" data-name="Group 137">
          <circle id="Ellipse_39" data-name="Ellipse 39" cx="7.275" cy="7.275" r="7.275" transform="translate(0 11.917) rotate(-54.99)" fill="#f7cf7f"/>
        </g>
        <g id="Group_138" data-name="Group 138" transform="translate(7.078 10.755)">
          <path id="Path_336" data-name="Path 336" d="M86.76,120.695a3.392,3.392,0,0,1-3.954-2.708.326.326,0,1,1,.641-.12,2.736,2.736,0,0,0,5.38-1.005.326.326,0,1,1,.642-.12A3.392,3.392,0,0,1,86.76,120.695Z" transform="translate(-82.801 -116.475)" fill="#3d331f"/>
        </g>
        <g id="Group_139" data-name="Group 139" transform="translate(5.268 7.141)">
          <path id="Path_337" data-name="Path 337" d="M81.754,110.3a1.3,1.3,0,1,1-1.517-1.039A1.3,1.3,0,0,1,81.754,110.3Z" transform="translate(-79.175 -109.235)" fill="#3d331f"/>
        </g>
        <g id="Group_140" data-name="Group 140" transform="translate(11.545 5.968)">
          <path id="Path_338" data-name="Path 338" d="M94.325,107.948a1.3,1.3,0,1,1-1.517-1.039A1.3,1.3,0,0,1,94.325,107.948Z" transform="translate(-91.746 -106.886)" fill="#3d331f"/>
        </g>
      </g>
      <g id="Group_146" data-name="Group 146" transform="translate(169.392 77.226)">
        <g id="Group_142" data-name="Group 142">
          <circle id="Ellipse_40" data-name="Ellipse 40" cx="7.275" cy="7.275" r="7.275" transform="matrix(0.172, -0.985, 0.985, 0.172, 0, 14.332)" fill="#f7cf7f"/>
        </g>
        <g id="Group_143" data-name="Group 143" transform="translate(4.57 8.642)">
          <path id="Path_339" data-name="Path 339" d="M408.569,271.386a3.392,3.392,0,0,1-2.215-4.249.326.326,0,0,1,.623.2,2.736,2.736,0,1,0,5.22,1.642.326.326,0,0,1,.622.2A3.392,3.392,0,0,1,408.569,271.386Z" transform="translate(-406.197 -266.909)" fill="#3d331f"/>
        </g>
        <g id="Group_144" data-name="Group 144" transform="translate(4.504 3.625)">
          <path id="Path_340" data-name="Path 340" d="M408.773,259.189a.326.326,0,0,1-.214-.409.974.974,0,1,0-1.858-.585.326.326,0,1,1-.622-.2,1.626,1.626,0,1,1,3.1.976A.326.326,0,0,1,408.773,259.189Z" transform="translate(-406.064 -256.861)" fill="#3d331f"/>
        </g>
        <g id="Group_145" data-name="Group 145" transform="translate(10.861 5.867)">
          <path id="Path_341" data-name="Path 341" d="M421.337,263.042a1.3,1.3,0,1,1-.85-1.63A1.3,1.3,0,0,1,421.337,263.042Z" transform="translate(-418.796 -261.351)" fill="#3d331f"/>
        </g>
      </g>
      <g id="Group_152" data-name="Group 152" transform="translate(124.767 12.659)">
        <g id="Group_147" data-name="Group 147">
          <path id="Path_342" data-name="Path 342" d="M321.908,129.685a7.275,7.275,0,1,1-4.839-9.079A7.275,7.275,0,0,1,321.908,129.685Z" transform="translate(-307.672 -120.287)" fill="#f7cf7f"/>
        </g>
        <g id="Group_148" data-name="Group 148" transform="translate(3.765 7.856)">
          <path id="Path_343" data-name="Path 343" d="M321.205,137.806a3.062,3.062,0,1,1-5.858-1.785Z" transform="translate(-315.213 -136.021)" fill="#3d331f"/>
        </g>
        <g id="Group_149" data-name="Group 149" transform="translate(3.598 2.829)">
          <path id="Path_344" data-name="Path 344" d="M317.421,127.633a1.3,1.3,0,1,1-.865-1.623A1.3,1.3,0,0,1,317.421,127.633Z" transform="translate(-314.877 -125.953)" fill="#3d331f"/>
        </g>
        <g id="Group_150" data-name="Group 150" transform="translate(9.706 4.691)">
          <path id="Path_345" data-name="Path 345" d="M329.655,131.36a1.3,1.3,0,1,1-.865-1.622A1.3,1.3,0,0,1,329.655,131.36Z" transform="translate(-327.11 -129.681)" fill="#3d331f"/>
        </g>
        <g id="Group_151" data-name="Group 151" transform="translate(4.699 10.011)">
          <path id="Path_346" data-name="Path 346" d="M317.84,143.579h0a1.068,1.068,0,0,1-.711-1.333l.581-1.908,2.044.623-.582,1.908A1.068,1.068,0,0,1,317.84,143.579Z" transform="translate(-317.082 -140.337)" fill="#d57ff7"/>
        </g>
      </g>
    </g>
  </g>
</svg>
