<svg xmlns="http://www.w3.org/2000/svg" xmlns:xlink="http://www.w3.org/1999/xlink" width="156.239" height="169.117" viewBox="0 0 156.239 169.117">
  <defs>
    <linearGradient id="linear-gradient" x1="1.171" y1="0.243" x2="-0.171" y2="0.891" gradientUnits="objectBoundingBox">
      <stop offset="0" stop-color="#fcffff"/>
      <stop offset="0.186" stop-color="#f4f5fc"/>
      <stop offset="0.665" stop-color="#e3e2f8"/>
      <stop offset="1" stop-color="#dedcf7"/>
    </linearGradient>
  </defs>
  <g id="video_stories_vector" transform="translate(-263.834 -4070.546)">
    <g id="Group_611" data-name="Group 611" transform="translate(263.834 4070.546)">
      <g id="Group_482" data-name="Group 482" transform="translate(0 10.09)">
        <path id="Path_1006" data-name="Path 1006" d="M413.886,190.987a3.661,3.661,0,1,0-3.848-3.463A3.661,3.661,0,0,0,413.886,190.987Z" transform="translate(-403.034 -135.645)" fill="#c2e8ed"/>
        <path id="Path_1007" data-name="Path 1007" d="M334.807,324a2.322,2.322,0,1,0-2.441-2.2A2.321,2.321,0,0,0,334.807,324Z" transform="translate(-291.723 -217.242)" fill="#c2e8ed"/>
        <path id="Path_1008" data-name="Path 1008" d="M344.45,265.667a1.92,1.92,0,1,0-2.018-1.817A1.92,1.92,0,0,0,344.45,265.667Z" transform="translate(-304.999 -182.645)" fill="#c2e8ed"/>
        <path id="Path_1009" data-name="Path 1009" d="M361.246,299.891a7.021,7.021,0,1,0-7.381-6.642A7.02,7.02,0,0,0,361.246,299.891Z" transform="translate(-331.183 -197.094)" fill="#c2e8ed"/>
        <path id="Path_1010" data-name="Path 1010" d="M419.175,259.9a3.848,3.848,0,1,0-4.046-3.64A3.847,3.847,0,0,0,419.175,259.9Z" transform="translate(-410.53 -176.858)" fill="#c2e8ed"/>
        <path id="Path_1011" data-name="Path 1011" d="M422.713,306.673a2.431,2.431,0,1,0-2.556-2.3A2.431,2.431,0,0,0,422.713,306.673Z" transform="translate(-414.731 -206.689)" fill="#c2e8ed"/>
        <path id="Path_1012" data-name="Path 1012" d="M389.5,70.272a3.536,3.536,0,1,0-3.718-3.346A3.536,3.536,0,0,0,389.5,70.272Z" transform="translate(-368.858 -63.204)" fill="#c2e8ed"/>
        <path id="Path_1013" data-name="Path 1013" d="M436.315,143.1a2.431,2.431,0,1,0-2.556-2.3A2.431,2.431,0,0,0,436.315,143.1Z" transform="translate(-433.755 -108.328)" fill="#c2e8ed"/>
      </g>
      <g id="Group_609" data-name="Group 609" transform="translate(6.816 5.343)">
        <path id="Path_1014" data-name="Path 1014" d="M54.143,297.071c.4-3.356,3.21-5.741,6.5-7.681,6.277-3.7,16.168-5.356,21.877-9.935,3.712-2.976,2.557-7.615,5.991-10.754l22.385,3.618c4.322-2.539,11.04-3.792,16-4.692,4.99-.9,9.768-2.532,14.746-3.509,8.757-1.722,19.286-3.663,28.262-2.21a7.811,7.811,0,0,1,6.112,6.115,6.446,6.446,0,0,1-2.8,6.745c-5.234,3.493-3.57,5.535-1.955,6.853,2.014,1.643,11.166,2.785,13.595,2.785,6.32,0,12.888-1.883,16.986,2.215,4.8,4.8-2.355,9.926-4.816,11.237-6.658,3.547-10.582,5.013-19.293,9.487-2.116,1.086-5.671,2.939-4.046,6.149.909,1.8,4.213,2.813,5.924,3.37,1.926.628,6.08,1.534,7.272,3.393,1.552,2.419-1.313,4.9-2.953,6.1A75.38,75.38,0,0,1,163.723,336.9c-4.267,1.395-18.651,8.32-21.352,1.682-2.151-5.288,6.252-8.086,5.776-13.578-.289-2.681-5.686-1.3-11.362,1.357-3.654,1.709-8.315,3.424-11.878,5.321-21.742,11.58-34.966,4.849-37.575,3.552-3.465-1.722-4.772-6.35-4.209-10.073.708-4.678,10.241-8.789,12.878-12.452,2.482-3.45,1.86-6.2-2.459-7.8-6.19-2.289-13.213-.1-18.254,1.2-4.778,1.23-15.3,2.078-19.173-1.954C54.2,302.159,53.838,299.656,54.143,297.071Z" transform="translate(-54.047 -177.638)" fill="#e5e5e5"/>
        <g id="Group_484" data-name="Group 484" transform="translate(41.24 117.969)" style="mix-blend-mode: multiply;isolation: isolate">
          <g id="Group_483" data-name="Group 483" transform="translate(0)">
            <path id="Path_1015" data-name="Path 1015" d="M303.816,356.106a.634.634,0,0,0,.667.137l3.46-1.855c.181-.1.175-.315-.013-.488l-7.086-6.507a.638.638,0,0,0-.668-.137l-3.46,1.855c-.181.1-.175.316.013.488Z" transform="translate(-296.585 -347.21)" fill="#cecece"/>
          </g>
        </g>
        <path id="Path_1016" data-name="Path 1016" d="M356.3,316.722c.1-.062.2-.125.308-.186,6.277-3.7,16.168-5.356,21.877-9.935.025-.02.048-.041.072-.061l.381.249-15.219,16.464Z" transform="translate(-350.01 -204.784)" fill="#cecece" style="mix-blend-mode: multiply;isolation: isolate"/>
        <g id="Group_519" data-name="Group 519" transform="translate(61.194 6.898)">
          <g id="Group_506" data-name="Group 506">
            <g id="Group_495" data-name="Group 495">
              <g id="Group_485" data-name="Group 485">
                <path id="Path_1017" data-name="Path 1017" d="M207.784,144.33s-11.707-2.856-10.943-9.725,4.291-8.6,5.454-12.315-7.561-9.218-5.49-15.758,8.63-8.3,9.3-10.727-2.744-7.265-3.965-10.573,3.1-14.889,9.085-16.416,6.489,5.345,5.09,11.453,2.927,8.612,5.472,15.886-.509,13.509-1.273,16.564,4.709,4.708,6.745,10.943-.382,14.125-9.417,22.142S207.784,144.33,207.784,144.33Z" transform="translate(-196.485 -68.6)" fill="#9ad9e1"/>
              </g>
              <g id="Group_494" data-name="Group 494" transform="translate(2.871 4.075)">
                <g id="Group_486" data-name="Group 486" transform="translate(8.551)">
                  <path id="Path_1018" data-name="Path 1018" d="M235,150.007c-.006-.111-.543-11.159,2.479-18.484,1.71-4.146-.137-6.483-1.924-8.743-1.34-1.7-2.605-3.3-2.287-5.522a16.036,16.036,0,0,1,2.493-5.942c1.346-2.27,2.618-4.415,2.4-7.328a24.434,24.434,0,0,0-2.554-8.816c-.431-.954-.839-1.855-1.168-2.784-1.193-3.354.464-10.909,2.14-13.565l.348.219c-1.6,2.532-3.237,10.013-2.1,13.208.325.912.729,1.806,1.157,2.752a24.78,24.78,0,0,1,2.589,8.954c.23,3.043-1.134,5.344-2.453,7.569a15.711,15.711,0,0,0-2.44,5.791c-.293,2.05.919,3.584,2.2,5.208,1.774,2.244,3.784,4.787,1.981,9.156-2.987,7.239-2.454,18.2-2.449,18.305Z" transform="translate(-233.22 -78.823)" fill="#f5ffcc"/>
                </g>
                <g id="Group_487" data-name="Group 487" transform="translate(7.377 1.012)">
                  <path id="Path_1019" data-name="Path 1019" d="M232.177,85.9,229.4,81.583l.347-.222,2.584,4.017,4.975-2.213.167.376Z" transform="translate(-229.402 -81.361)" fill="#f5ffcc"/>
                </g>
                <g id="Group_488" data-name="Group 488" transform="translate(3.469 7.873)">
                  <path id="Path_1020" data-name="Path 1020" d="M236.466,103.73l-6.285-4.83.251-.327,6.056,4.655,5.141-3.281.221.347Z" transform="translate(-230.181 -98.572)" fill="#f5ffcc"/>
                </g>
                <g id="Group_489" data-name="Group 489" transform="translate(7.929 19.383)">
                  <path id="Path_1021" data-name="Path 1021" d="M225.692,131.767l-5.574-3.73.229-.342,5.339,3.572,5.416-3.824.237.337Z" transform="translate(-220.117 -127.444)" fill="#f5ffcc"/>
                </g>
                <g id="Group_490" data-name="Group 490" transform="translate(4.314 26.985)">
                  <path id="Path_1022" data-name="Path 1022" d="M221.616,153.4l-6.272-6.607.3-.284,6.113,6.439L232,150.745l.087.4Z" transform="translate(-215.344 -146.511)" fill="#f5ffcc"/>
                </g>
                <g id="Group_491" data-name="Group 491" transform="translate(0.782 39.653)">
                  <path id="Path_1023" data-name="Path 1023" d="M227.6,182.31l-.069-.022-9.693-3.111.125-.392,9.625,3.09,9.379-3.586.147.384Z" transform="translate(-217.842 -178.288)" fill="#f5ffcc"/>
                </g>
                <g id="Group_492" data-name="Group 492" transform="translate(3.45 49.968)">
                  <path id="Path_1024" data-name="Path 1024" d="M212.3,212.295l-8.02-7.84.287-.294,7.812,7.637,13.736-6.734.181.37Z" transform="translate(-204.276 -204.161)" fill="#f5ffcc"/>
                </g>
                <g id="Group_493" data-name="Group 493" transform="translate(0 61.092)">
                  <path id="Path_1025" data-name="Path 1025" d="M225.306,239.918,214.839,232.4l.241-.335,10.283,7.388,10.579-4.228.153.382Z" transform="translate(-214.839 -232.064)" fill="#f5ffcc"/>
                </g>
              </g>
            </g>
            <g id="Group_496" data-name="Group 496" transform="translate(21.39 15.053)">
              <path id="Path_1026" data-name="Path 1026" d="M154.131,182.089s-11.707-2.856-10.943-9.725,4.29-8.6,5.454-12.315-7.562-9.218-5.49-15.758,8.629-8.3,9.3-10.726-2.744-7.265-3.966-10.573,3.1-14.889,9.085-16.416,6.489,5.345,5.09,11.453,2.927,8.612,5.472,15.886-.509,13.509-1.273,16.563,4.709,4.708,6.745,10.943-.382,14.125-9.417,22.142S154.131,182.089,154.131,182.089Z" transform="translate(-142.832 -106.359)" fill="#c2e8ed"/>
            </g>
            <g id="Group_505" data-name="Group 505" transform="translate(24.364 21.981)">
              <g id="Group_497" data-name="Group 497" transform="translate(8.551)">
                <path id="Path_1027" data-name="Path 1027" d="M181.091,194.922c-.006-.11-.544-11.159,2.479-18.484,1.71-4.146-.137-6.484-1.924-8.744-1.34-1.695-2.6-3.3-2.287-5.522a16.039,16.039,0,0,1,2.494-5.942c1.346-2.27,2.618-4.415,2.4-7.329a24.44,24.44,0,0,0-2.554-8.815c-.431-.954-.839-1.855-1.169-2.784-1.193-3.354.465-10.909,2.14-13.565l.348.22c-1.6,2.531-3.236,10.012-2.1,13.207.325.913.729,1.807,1.157,2.753a24.773,24.773,0,0,1,2.589,8.954c.23,3.043-1.134,5.344-2.453,7.569a15.722,15.722,0,0,0-2.44,5.79c-.293,2.051.919,3.584,2.2,5.208,1.774,2.244,3.784,4.787,1.981,9.156-2.986,7.239-2.454,18.2-2.448,18.306Z" transform="translate(-179.309 -123.738)" fill="#f5ffcc"/>
              </g>
              <g id="Group_498" data-name="Group 498" transform="translate(7.377 1.012)">
                <path id="Path_1028" data-name="Path 1028" d="M178.265,130.812,175.49,126.5l.346-.223,2.584,4.017,4.975-2.213.167.377Z" transform="translate(-175.49 -126.275)" fill="#f5ffcc"/>
              </g>
              <g id="Group_499" data-name="Group 499" transform="translate(3.469 7.874)">
                <path id="Path_1029" data-name="Path 1029" d="M182.555,148.646l-6.285-4.831.251-.326,6.056,4.655,5.141-3.281.221.347Z" transform="translate(-176.27 -143.488)" fill="#f5ffcc"/>
              </g>
              <g id="Group_500" data-name="Group 500" transform="translate(7.929 19.384)">
                <path id="Path_1030" data-name="Path 1030" d="M171.78,176.683l-5.575-3.73.229-.342,5.339,3.572,5.416-3.824.237.337Z" transform="translate(-166.206 -172.36)" fill="#f5ffcc"/>
              </g>
              <g id="Group_501" data-name="Group 501" transform="translate(4.314 26.985)">
                <path id="Path_1031" data-name="Path 1031" d="M167.7,198.317l-6.272-6.607.3-.284,6.113,6.439,10.242-2.206.087.4Z" transform="translate(-161.433 -191.426)" fill="#f5ffcc"/>
              </g>
              <g id="Group_502" data-name="Group 502" transform="translate(0.781 39.653)">
                <path id="Path_1032" data-name="Path 1032" d="M173.693,227.225l-.069-.022-9.694-3.112.125-.392,9.625,3.089,9.379-3.586.147.384Z" transform="translate(-163.93 -223.204)" fill="#f5ffcc"/>
              </g>
              <g id="Group_503" data-name="Group 503" transform="translate(3.45 49.967)">
                <path id="Path_1033" data-name="Path 1033" d="M158.384,257.21l-8.02-7.84.288-.295,7.812,7.636,13.736-6.733.181.37Z" transform="translate(-150.364 -249.075)" fill="#f5ffcc"/>
              </g>
              <g id="Group_504" data-name="Group 504" transform="translate(0 61.092)">
                <path id="Path_1034" data-name="Path 1034" d="M171.394,284.833l-10.466-7.519.24-.335,10.283,7.388,10.579-4.228.153.382Z" transform="translate(-160.927 -276.979)" fill="#f5ffcc"/>
              </g>
            </g>
          </g>
          <g id="Group_518" data-name="Group 518" transform="translate(9.803 39.922)">
            <path id="Path_1035" data-name="Path 1035" d="M182.289,189.563c1.277-4.03,4.257-6.243,6.512-7.918a16.135,16.135,0,0,1-.46,2.436c-1.141,4.272,2.385,6.024,4.46,11.112s-.415,9.45-1.038,11.586,3.838,3.294,5.5,7.655c1.392,3.657.229,8.128-4.523,12.782-2.274-.657-11.078-3.594-10.412-9.58.763-6.871,4.29-8.6,5.454-12.315S180.217,196.1,182.289,189.563Z" transform="translate(-170.382 -176.5)" fill="#dfefe3" style="mix-blend-mode: multiply;isolation: isolate"/>
            <g id="Group_507" data-name="Group 507" transform="translate(0)" style="mix-blend-mode: multiply;isolation: isolate">
              <path id="Path_1036" data-name="Path 1036" d="M202.409,221.165s-8.105-1.977-7.576-6.733,2.97-5.952,3.775-8.525-5.235-6.381-3.8-10.909,5.974-5.743,6.435-7.426-3.514-3.046-4.15-5.4c-1.381-5.108,3.554-12.224,7.695-13.281s4.492,3.7,3.523,7.929,2.026,5.962,3.788,11-.353,9.352-.881,11.466,3.26,3.259,4.669,7.576,2.521,10.917-3.733,16.468S202.409,221.165,202.409,221.165Z" transform="translate(-194.587 -168.741)" fill="#dfefe3"/>
            </g>
            <g id="Group_508" data-name="Group 508" transform="translate(1.802)">
              <path id="Path_1037" data-name="Path 1037" d="M197.891,221.165s-8.1-1.977-7.576-6.733,2.97-5.952,3.775-8.525-5.235-6.381-3.8-10.909,5.974-5.743,6.435-7.426-3.514-3.046-4.151-5.4c-1.381-5.108,3.555-12.224,7.7-13.281s4.492,3.7,3.523,7.929,2.026,5.962,3.789,11-.353,9.352-.881,11.466,3.259,3.259,4.669,7.576,2.52,10.917-3.734,16.468S197.891,221.165,197.891,221.165Z" transform="translate(-190.069 -168.741)" fill="#c4d0d4"/>
            </g>
            <g id="Group_517" data-name="Group 517" transform="translate(3.571 2.579)">
              <g id="Group_509" data-name="Group 509" transform="translate(6.543)">
                <path id="Path_1038" data-name="Path 1038" d="M216.773,225.873c0-.079-.387-7.95,1.768-13.172,1.2-2.917-.1-4.565-1.36-6.16-.961-1.215-1.869-2.364-1.639-3.972a11.465,11.465,0,0,1,1.781-4.249c.953-1.606,1.852-3.124,1.7-5.177a17.336,17.336,0,0,0-1.811-6.249c-.308-.68-.6-1.322-.834-1.985-.854-2.4.33-7.8,1.528-9.7l.348.22c-1.13,1.791-2.291,7.084-1.488,9.342.23.647.517,1.281.821,1.953a17.682,17.682,0,0,1,1.846,6.388c.165,2.183-.81,3.828-1.753,5.418a11.132,11.132,0,0,0-1.728,4.1c-.2,1.434.65,2.514,1.554,3.659,1.271,1.609,2.713,3.432,1.417,6.572-2.118,5.135-1.741,12.915-1.737,12.994Z" transform="translate(-215.506 -175.209)" fill="#f5ffcc"/>
              </g>
              <g id="Group_510" data-name="Group 510" transform="translate(5.718 0.719)">
                <path id="Path_1039" data-name="Path 1039" d="M214.88,180.347l-2-3.111.347-.223,1.81,2.814,3.492-1.553.167.376Z" transform="translate(-212.879 -177.013)" fill="#f5ffcc"/>
              </g>
              <g id="Group_511" data-name="Group 511" transform="translate(2.956 5.743)">
                <path id="Path_1040" data-name="Path 1040" d="M218.392,193.256l-4.52-3.308.243-.332,4.258,3.116,3.413-2.9.267.314Z" transform="translate(-213.872 -189.616)" fill="#f5ffcc"/>
              </g>
              <g id="Group_512" data-name="Group 512" transform="translate(5.509 13.763)">
                <path id="Path_1041" data-name="Path 1041" d="M210.872,212.932l-4.622-2.849.216-.351,4.391,2.707,3.823-2.7.237.336Z" transform="translate(-206.25 -209.732)" fill="#f5ffcc"/>
              </g>
              <g id="Group_513" data-name="Group 513" transform="translate(2.745 19.712)">
                <path id="Path_1042" data-name="Path 1042" d="M208.213,229.13l-5.3-4.15.254-.324,5.152,4.031,7.271-1.566.087.4Z" transform="translate(-202.909 -224.655)" fill="#f5ffcc"/>
              </g>
              <g id="Group_514" data-name="Group 514" transform="translate(0 27.668)">
                <path id="Path_1043" data-name="Path 1043" d="M216.638,249.663l-9.353-4.683.184-.368,9.107,4.56,4.2-3.656.27.31Z" transform="translate(-207.285 -244.612)" fill="#f5ffcc"/>
              </g>
              <g id="Group_515" data-name="Group 515" transform="translate(2.934 35.529)">
                <path id="Path_1044" data-name="Path 1044" d="M200.736,270.229,195,264.623l.288-.294,5.526,5.4,9.732-4.771.181.37Z" transform="translate(-195.002 -264.329)" fill="#f5ffcc"/>
              </g>
              <g id="Group_516" data-name="Group 516" transform="translate(0.487 43.435)">
                <path id="Path_1045" data-name="Path 1045" d="M210,289.862l-7.471-5.368.241-.334,7.287,5.235,7.494-2.994.153.382Z" transform="translate(-202.526 -284.16)" fill="#f5ffcc"/>
              </g>
            </g>
          </g>
        </g>
        <g id="Group_569" data-name="Group 569" transform="translate(12.637 0)">
          <g id="Group_565" data-name="Group 565">
            <g id="Group_520" data-name="Group 520" transform="translate(0)">
              <path id="Path_1046" data-name="Path 1046" d="M250.325,167.445a3.3,3.3,0,0,0,1.737,2.841,31,31,0,0,0,3.313,2.189L301.42,152.2a7.172,7.172,0,0,0,4.413-6.112l3.028-91.154c0-.939-3.052-2.495-3.822-2.89a4.05,4.05,0,0,0-3.619-.495L254.739,69.509a7.171,7.171,0,0,0-4.414,6.112Z" transform="translate(-250.325 -51.298)" fill="#040c50"/>
            </g>
            <g id="Group_564" data-name="Group 564" transform="translate(3.527 2.267)">
              <g id="Group_523" data-name="Group 523">
                <g id="Group_522" data-name="Group 522">
                  <g id="Group_521" data-name="Group 521">
                    <path id="Path_1047" data-name="Path 1047" d="M249.073,173.2c0,2.437,1.976,3.653,4.414,2.715l46.681-17.965a7.171,7.171,0,0,0,4.414-6.112V60.016c0-2.437-1.976-3.653-4.414-2.715L253.487,75.265a7.17,7.17,0,0,0-4.414,6.112Z" transform="translate(-249.073 -56.984)" fill="#0b1564"/>
                  </g>
                </g>
                <path id="Path_1048" data-name="Path 1048" d="M255.451,180.638l50.423-19.405V76.239l-50.423,19.4Z" transform="translate(-252.908 -68.563)" fill="url(#linear-gradient)"/>
                <path id="Path_1049" data-name="Path 1049" d="M305.874,76.239v.571l-49.94,19.218v84.423l-.483.186V95.644Z" transform="translate(-252.908 -68.563)" fill="#c2c1e0"/>
                <path id="Path_1050" data-name="Path 1050" d="M261.3,66.995c0,.643.521.964,1.164.716a1.892,1.892,0,0,0,1.164-1.612c0-.643-.521-.963-1.164-.716A1.892,1.892,0,0,0,261.3,66.995Z" transform="translate(-212.987 -61.984)" fill="#564bbc"/>
                <path id="Path_1051" data-name="Path 1051" d="M271.874,71.184c0,.4.324.6.724.445a1.176,1.176,0,0,0,.724-1c0-.4-.324-.6-.724-.445A1.174,1.174,0,0,0,271.874,71.184Z" transform="translate(-226.902 -64.889)" fill="#564bbc"/>
                <path id="Path_1052" data-name="Path 1052" d="M301.339,86.4c0,.873.708,1.309,1.582.973l10.673-4.107a2.569,2.569,0,0,0,1.581-2.189h0c0-.873-.708-1.309-1.581-.973l-10.673,4.108a2.569,2.569,0,0,0-1.582,2.189Z" transform="translate(-280.502 -70.819)" fill="#f2f5fa"/>
              </g>
              <g id="Group_533" data-name="Group 533" transform="translate(4.094 23.602)">
                <g id="Group_524" data-name="Group 524">
                  <path id="Path_1053" data-name="Path 1053" d="M301.339,139.254c0,1.4,1.135,2.1,2.535,1.56L329.382,131a4.119,4.119,0,0,0,2.535-3.511v-9.558c0-1.4-1.135-2.1-2.535-1.56l-25.508,9.816a4.119,4.119,0,0,0-2.535,3.51Z" transform="translate(-301.339 -116.186)" fill="#f5c9cd"/>
                </g>
                <g id="Group_525" data-name="Group 525" transform="translate(3.718 21.957)">
                  <path id="Path_1054" data-name="Path 1054" d="M361.858,171.263l-4.546,5.373v-3.623Z" transform="translate(-357.311 -171.263)" fill="#f5c9cd"/>
                </g>
                <g id="Group_532" data-name="Group 532" transform="translate(3.19 2.391)">
                  <g id="Group_526" data-name="Group 526" transform="translate(11.595)">
                    <path id="Path_1055" data-name="Path 1055" d="M308.725,127.656l12.848-4.944v-.527l-12.848,4.944Z" transform="translate(-308.725 -122.185)" fill="#f4f3ff"/>
                  </g>
                  <g id="Group_527" data-name="Group 527" transform="translate(0 1.955)">
                    <path id="Path_1056" data-name="Path 1056" d="M308.725,137.021l24.443-9.406v-.527l-24.443,9.406Z" transform="translate(-308.725 -127.088)" fill="#f4f3ff"/>
                  </g>
                  <g id="Group_528" data-name="Group 528" transform="translate(0 3.909)">
                    <path id="Path_1057" data-name="Path 1057" d="M308.725,141.923l24.443-9.406v-.527L308.725,141.4Z" transform="translate(-308.725 -131.989)" fill="#f4f3ff"/>
                  </g>
                  <g id="Group_529" data-name="Group 529" transform="translate(0 5.863)">
                    <path id="Path_1058" data-name="Path 1058" d="M308.725,146.825l24.443-9.406v-.528L308.725,146.3Z" transform="translate(-308.725 -136.892)" fill="#f4f3ff"/>
                  </g>
                  <g id="Group_530" data-name="Group 530" transform="translate(0 7.818)">
                    <path id="Path_1059" data-name="Path 1059" d="M308.725,151.728l24.443-9.406v-.527L308.725,151.2Z" transform="translate(-308.725 -141.795)" fill="#f4f3ff"/>
                  </g>
                  <g id="Group_531" data-name="Group 531" transform="translate(0 9.772)">
                    <path id="Path_1060" data-name="Path 1060" d="M308.725,156.631l24.443-9.406V146.7L308.725,156.1Z" transform="translate(-308.725 -146.697)" fill="#f4f3ff"/>
                  </g>
                </g>
              </g>
              <g id="Group_543" data-name="Group 543" transform="translate(20.565 35.811)">
                <g id="Group_534" data-name="Group 534" transform="translate(0 0)">
                  <path id="Path_1061" data-name="Path 1061" d="M290.6,158.113a4.119,4.119,0,0,1-2.535,3.511l-25.507,9.816c-1.4.539-2.535-.16-2.535-1.56v-9.559a4.117,4.117,0,0,1,2.535-3.51l25.507-9.816c1.4-.539,2.535.159,2.535,1.56Z" transform="translate(-260.023 -146.812)" fill="#fff"/>
                </g>
                <g id="Group_535" data-name="Group 535" transform="translate(22.314 14.8)">
                  <path id="Path_1062" data-name="Path 1062" d="M269.348,185.687l4.546,1.874v-3.623Z" transform="translate(-269.348 -183.938)" fill="#fff"/>
                </g>
                <g id="Group_542" data-name="Group 542" transform="translate(2.945 4.44)">
                  <g id="Group_536" data-name="Group 536" transform="translate(0 2.508)">
                    <path id="Path_1063" data-name="Path 1063" d="M309.959,164.768l-12.847,4.944v-.527l12.847-4.944Z" transform="translate(-297.112 -164.241)" fill="#a9c8ff"/>
                  </g>
                  <g id="Group_537" data-name="Group 537">
                    <path id="Path_1064" data-name="Path 1064" d="M292.469,158.477l-24.443,9.406v-.527l24.443-9.406Z" transform="translate(-268.026 -157.95)" fill="#a9c8ff"/>
                  </g>
                  <g id="Group_538" data-name="Group 538" transform="translate(0 1.954)">
                    <path id="Path_1065" data-name="Path 1065" d="M292.469,163.38l-24.443,9.406v-.527l24.443-9.406Z" transform="translate(-268.026 -162.852)" fill="#a9c8ff"/>
                  </g>
                  <g id="Group_539" data-name="Group 539" transform="translate(0 3.909)">
                    <path id="Path_1066" data-name="Path 1066" d="M292.469,168.282l-24.443,9.406v-.527l24.443-9.407Z" transform="translate(-268.026 -167.755)" fill="#a9c8ff"/>
                  </g>
                  <g id="Group_540" data-name="Group 540" transform="translate(0 5.864)">
                    <path id="Path_1067" data-name="Path 1067" d="M292.469,173.185l-24.443,9.406v-.527l24.443-9.406Z" transform="translate(-268.026 -172.658)" fill="#a9c8ff"/>
                  </g>
                  <g id="Group_541" data-name="Group 541" transform="translate(0 7.818)">
                    <path id="Path_1068" data-name="Path 1068" d="M292.469,178.087l-24.443,9.407v-.527l24.443-9.406Z" transform="translate(-268.026 -177.56)" fill="#a9c8ff"/>
                  </g>
                </g>
              </g>
              <g id="Group_553" data-name="Group 553" transform="translate(4.094 60.611)">
                <g id="Group_544" data-name="Group 544">
                  <path id="Path_1069" data-name="Path 1069" d="M301.339,232.086c0,1.4,1.135,2.1,2.535,1.56l25.508-9.816a4.12,4.12,0,0,0,2.535-3.511v-9.559c0-1.4-1.135-2.1-2.535-1.559l-25.508,9.816a4.12,4.12,0,0,0-2.535,3.511Z" transform="translate(-301.339 -209.018)" fill="#f5c9cd"/>
                </g>
                <g id="Group_545" data-name="Group 545" transform="translate(3.718 21.957)">
                  <path id="Path_1070" data-name="Path 1070" d="M361.858,264.094l-4.546,5.374v-3.624Z" transform="translate(-357.311 -264.094)" fill="#f5c9cd"/>
                </g>
                <g id="Group_552" data-name="Group 552" transform="translate(3.19 2.391)">
                  <g id="Group_546" data-name="Group 546" transform="translate(11.595)">
                    <path id="Path_1071" data-name="Path 1071" d="M308.725,220.488l12.848-4.944v-.527l-12.848,4.944Z" transform="translate(-308.725 -215.017)" fill="#f4f3ff"/>
                  </g>
                  <g id="Group_547" data-name="Group 547" transform="translate(0 1.954)">
                    <path id="Path_1072" data-name="Path 1072" d="M308.725,229.852l24.443-9.406v-.527l-24.443,9.407Z" transform="translate(-308.725 -219.919)" fill="#f4f3ff"/>
                  </g>
                  <g id="Group_548" data-name="Group 548" transform="translate(0 3.909)">
                    <path id="Path_1073" data-name="Path 1073" d="M308.725,234.755l24.443-9.406v-.527l-24.443,9.406Z" transform="translate(-308.725 -224.821)" fill="#f4f3ff"/>
                  </g>
                  <g id="Group_549" data-name="Group 549" transform="translate(0 5.864)">
                    <path id="Path_1074" data-name="Path 1074" d="M308.725,239.658l24.443-9.407v-.527l-24.443,9.406Z" transform="translate(-308.725 -229.725)" fill="#f4f3ff"/>
                  </g>
                  <g id="Group_550" data-name="Group 550" transform="translate(0 7.818)">
                    <path id="Path_1075" data-name="Path 1075" d="M308.725,244.56l24.443-9.406v-.527l-24.443,9.406Z" transform="translate(-308.725 -234.627)" fill="#f4f3ff"/>
                  </g>
                  <g id="Group_551" data-name="Group 551" transform="translate(0 9.772)">
                    <path id="Path_1076" data-name="Path 1076" d="M308.725,249.463l24.443-9.406v-.527l-24.443,9.406Z" transform="translate(-308.725 -239.529)" fill="#f4f3ff"/>
                  </g>
                </g>
              </g>
              <g id="Group_563" data-name="Group 563" transform="translate(20.565 72.466)">
                <g id="Group_554" data-name="Group 554">
                  <path id="Path_1077" data-name="Path 1077" d="M290.6,250.057a4.119,4.119,0,0,1-2.535,3.511l-25.507,9.816c-1.4.539-2.535-.16-2.535-1.56v-9.559a4.118,4.118,0,0,1,2.535-3.511l25.507-9.816c1.4-.539,2.535.159,2.535,1.559Z" transform="translate(-260.023 -238.757)" fill="#fff"/>
                </g>
                <g id="Group_555" data-name="Group 555" transform="translate(22.314 14.8)">
                  <path id="Path_1078" data-name="Path 1078" d="M269.348,277.631l4.546,1.874v-3.624Z" transform="translate(-269.348 -275.881)" fill="#fff"/>
                </g>
                <g id="Group_562" data-name="Group 562" transform="translate(2.945 4.44)">
                  <g id="Group_556" data-name="Group 556" transform="translate(0 2.508)">
                    <path id="Path_1079" data-name="Path 1079" d="M309.959,256.712l-12.847,4.944v-.527l12.847-4.944Z" transform="translate(-297.112 -256.185)" fill="#a9c8ff"/>
                  </g>
                  <g id="Group_557" data-name="Group 557">
                    <path id="Path_1080" data-name="Path 1080" d="M292.469,250.421l-24.443,9.407V259.3l24.443-9.407Z" transform="translate(-268.026 -249.894)" fill="#a9c8ff"/>
                  </g>
                  <g id="Group_558" data-name="Group 558" transform="translate(0 1.955)">
                    <path id="Path_1081" data-name="Path 1081" d="M292.469,255.325l-24.443,9.407V264.2l24.443-9.406Z" transform="translate(-268.026 -254.798)" fill="#a9c8ff"/>
                  </g>
                  <g id="Group_559" data-name="Group 559" transform="translate(0 3.909)">
                    <path id="Path_1082" data-name="Path 1082" d="M292.469,260.227l-24.443,9.406v-.527l24.443-9.407Z" transform="translate(-268.026 -259.699)" fill="#a9c8ff"/>
                  </g>
                  <g id="Group_560" data-name="Group 560" transform="translate(0 5.864)">
                    <path id="Path_1083" data-name="Path 1083" d="M292.469,265.129l-24.443,9.406v-.527l24.443-9.406Z" transform="translate(-268.026 -264.602)" fill="#a9c8ff"/>
                  </g>
                  <g id="Group_561" data-name="Group 561" transform="translate(0 7.818)">
                    <path id="Path_1084" data-name="Path 1084" d="M292.469,270.031l-24.443,9.407v-.527l24.443-9.407Z" transform="translate(-268.026 -269.504)" fill="#a9c8ff"/>
                  </g>
                </g>
              </g>
            </g>
          </g>
          <g id="Group_566" data-name="Group 566" transform="translate(0.452 42.674)">
            <path id="Path_1085" data-name="Path 1085" d="M393.72,164.887c0,.233-.524.639-.757.549l.082-.386a.687.687,0,0,1-.422-.585l-.419-5.678c0-.233.507-.5.814-.437l.279.059a.686.686,0,0,1,.422.584Z" transform="translate(-392.197 -158.342)" fill="#9a98f9"/>
            <path id="Path_1086" data-name="Path 1086" d="M394.367,165.522c0,.233-.189.35-.423.26l-.253-.1a.686.686,0,0,1-.422-.584v-5.893c0-.233.189-.349.422-.26l.253.1a.686.686,0,0,1,.423.584Z" transform="translate(-393.27 -158.689)" fill="#786de2"/>
          </g>
          <g id="Group_567" data-name="Group 567" transform="translate(0.452 51.078)">
            <path id="Path_1087" data-name="Path 1087" d="M393.72,185.967c0,.233-.524.639-.757.549l.082-.385a.687.687,0,0,1-.422-.585l-.419-5.678c0-.233.507-.5.814-.437l.279.059a.686.686,0,0,1,.422.585Z" transform="translate(-392.197 -179.422)" fill="#9a98f9"/>
            <path id="Path_1088" data-name="Path 1088" d="M394.367,186.6c0,.233-.189.349-.423.26l-.253-.1a.686.686,0,0,1-.422-.584v-5.893c0-.233.189-.349.422-.26l.253.1a.686.686,0,0,1,.423.584Z" transform="translate(-393.27 -179.769)" fill="#786de2"/>
          </g>
          <g id="Group_568" data-name="Group 568" transform="translate(0.452 35.693)">
            <path id="Path_1089" data-name="Path 1089" d="M393.72,147.376c0,.233-.524.639-.757.549l.082-.385a.686.686,0,0,1-.422-.584l-.419-5.678c0-.233.507-.5.814-.437l.279.058a.686.686,0,0,1,.422.585Z" transform="translate(-392.197 -140.831)" fill="#9a98f9"/>
            <path id="Path_1090" data-name="Path 1090" d="M394.367,148.012c0,.233-.189.349-.423.259l-.253-.1a.686.686,0,0,1-.422-.584V141.7c0-.233.189-.349.422-.26l.253.1a.685.685,0,0,1,.423.584Z" transform="translate(-393.27 -141.178)" fill="#786de2"/>
          </g>
        </g>
        <path id="Path_1091" data-name="Path 1091" d="M67.559,273.368c.079-.092.161-.177.246-.262h0a8.654,8.654,0,0,1,4.772-2l.117.2,2.53-1.672c-.024-.051-.049-.1-.073-.154a69.7,69.7,0,0,1,15.816-11.429c-.305-.365-.559-.661-.559-.661a48.672,48.672,0,0,0-11.574-10.287,9.223,9.223,0,0,1-2.03-1.153l-.026-.014a1.815,1.815,0,0,1-.561-.466,10.75,10.75,0,0,1-3.064-9.42,9.9,9.9,0,0,1,.759-2.267l-.006.008c.49-1.26.982-2.323,1.437-3.257a3.247,3.247,0,0,0-.186.384c-1.518-1.851-4.139-5.855-4.315-9.79-.087-1.95,1.377-4.185.444-5.563a4.693,4.693,0,0,1-.222-4.992c1.052-1.68,3.306-2.445,1.944-4.565-1.214-1.89.448-5.281,1.284-7.512-1.59.842-2.2,1.436-3.007,1.806-1.554.713-1.035-2.541,2.368-5.329-.74-3.572.74-7.21,3.4-8.216s6.942-1.08,9,2.384h0l.12-.042c-1.309-2.953.278-6.363,3.414-7.84,3.329-1.57,7.958-.318,8.328,2.036,1.3.813.892,3.834.773,4.564-.016.1-.028.158-.028.159.024.089.046.179.068.268a2.013,2.013,0,0,1,1.349,2.017,2.061,2.061,0,0,1-1.191,1.967,15.54,15.54,0,0,1-.5,2.463c1.479.722,3.707,1.831,4.715,2.438a105.062,105.062,0,0,1,9.69,12.83c3.14,5.276,2.275,12.714,1.424,15.663,5.235-.278,11.274,9.935,14.079,10.461,5.371,1,21.637,15.847,24.071,18.656-.036.044-.071.083-.107.126l1.78,2.053a1.088,1.088,0,0,1,.95.177c2.243,1.846,5.23,4.174,7.655,4.37a6.816,6.816,0,0,1,4.074,1.526h0a1.826,1.826,0,0,1,.274.382l0,.005a1.435,1.435,0,0,1,.081.192l.006.018a1.227,1.227,0,0,1,.047.2.13.13,0,0,1,0,.013,1.165,1.165,0,0,1,.008.191c0,.013,0,.026,0,.04a1.292,1.292,0,0,1-.03.211l0,.015a1.476,1.476,0,0,1-.065.2c-.007.018-.015.037-.023.055-.032.072,2.573.322,2.526.4-2.3,3.579-6.491,1.969-7.313,1.673a51.852,51.852,0,0,0-5.118-1.525c-1.883-.406-3.535-.25-4.806-.707a4.837,4.837,0,0,1-.354-.359c-.018-.021-.033-.042-.051-.063-.089-.1-.173-.206-.248-.311-.01-.014-.018-.029-.028-.043-.08-.113-.153-.226-.219-.34l-.007-.012c-.827-1.439-.9-1.614-.862-1.842l-2.217-1.367c-.135.064-.881-.3-.881-.3s-12.343-5.82-16.895-10.57-7.648-8.717-8.271-8.757c-.19-.012-1.424,1.749-3.69,1.972,5.571,7.425,14.97,19.107,16.706,21.486-.175.095,3.508,1.954,3.339,2.045l1,2.059a2.336,2.336,0,0,1,1.078.827c1.683,2.335,3.958,5.318,6.252,6.1a6.874,6.874,0,0,1,3.482,2.376l.016.026a2.09,2.09,0,0,1,.116.234l.015.038a1.58,1.58,0,0,1,.073.234l.006.032a1.26,1.26,0,0,1,0,.486c0,.01,0,.021-.006.031a1.208,1.208,0,0,1-.075.228l-.019.041a1.442,1.442,0,0,1-.131.222c-.008.012-.017.022-.026.034-.057.076,3.247.281,3.174.361-3.024,3.305-13.473-1.6-16.884-3.914-.1-.149-.183-.3-.262-.451-.018-.034-.031-.067-.049-.1-.06-.12-.117-.24-.167-.36-.011-.026-.02-.052-.03-.077-.052-.131-.1-.261-.141-.39l-.011-.036q-.067-.214-.116-.423v0h0a6.509,6.509,0,0,1-.041-2.793l-1.624-2.521c-.36.179-.56.276-.56.276s-11.006-5.639-14.575-11.114-6.807-8.263-7.411-8.412c-.493-.122-6.079-4.918-12.365-6.417,2.9,2.1,5.7,3.962,7.39,5.411,4.538,3.9,2.861,7.419-.789,11.6a62.718,62.718,0,0,1-6.448,5.768L96.1,262.627a47.21,47.21,0,0,1-3.535,3.189c-6.9,3.446-15.284,7.157-15.284,7.157l-.092-.119-2.917,1.482c.12.263.232.521.326.763-2.311.688-1.511,3.179-.659,3.359,2.619.361,3.137,1.763,3.174,2.722v0a3.032,3.032,0,0,1-.1.909l0,0a.1.1,0,0,1,0,.016l-6.521-1.266L67.3,273.7A3.6,3.6,0,0,1,67.559,273.368Zm8.688-54.347c-.047-.024-.091-.052-.135-.078.066.245.133.463.2.668C76.289,219.416,76.268,219.219,76.247,219.021Zm23.534-28.714a2.244,2.244,0,0,0-.024-.3l-.75-.12c.012.14.018.276.018.405a15.6,15.6,0,0,1-.1,1.654A1.837,1.837,0,0,0,99.781,190.308Zm-.806-.72.716.115a1.616,1.616,0,0,0-.886-1.078C98.878,188.957,98.937,189.282,98.975,189.588Zm54.334,70.835c-.029-.045-.054-.094-.079-.141l-.153.38A.541.541,0,0,0,153.309,260.423ZM108.25,224.371c0-.057.01-.114.015-.171a.624.624,0,0,0-.074.2ZM104.845,213.6c.9,3.224,2.021,7.4,2.692,9.921a2.835,2.835,0,0,1,.86-.813.212.212,0,0,1,.153.011c.1-1.945.191-4.434.1-5.651-.163-2.16-4.429-7.58-4.439-7.591A21.18,21.18,0,0,0,104.845,213.6Zm-6.826-27.647h0l0,.009Z" transform="translate(-25.402 -129.031)" fill="#cecece" style="mix-blend-mode: multiply;isolation: isolate"/>
        <path id="Path_1092" data-name="Path 1092" d="M230,395.493l-2.174,2.219.761.693s-.133.188-.581.756c-.4.507,1.223,1.832,3.32,4.1l.016.018.342.374q.193.214.389.438a3.719,3.719,0,0,1,.018,5.2l-3.528-3.211h0l-7.853-7.147a.762.762,0,0,1,.01-.237s0-.009,0-.013a1.346,1.346,0,0,1,.082-.262l.007-.016a2.318,2.318,0,0,1,.147-.287l.006-.012a17.917,17.917,0,0,1,3.509-3.452l.345.314,2.068-2.111c-.027-.034-.053-.065-.08-.1,1.006-1.6,3.1-7.557,4.219-8.978l16.593-5.328C243.711,385.52,231.362,394.484,230,395.493Z" transform="translate(-164.634 -248.033)" fill="#cecece" style="mix-blend-mode: multiply;isolation: isolate"/>
        <g id="Group_602" data-name="Group 602" transform="translate(42.114 52.722)">
          <g id="Group_588" data-name="Group 588" transform="translate(20.196)">
            <g id="Group_572" data-name="Group 572" transform="translate(13.243 44.491)">
              <g id="Group_571" data-name="Group 571" transform="translate(50.361 28.106)">
                <path id="Path_1093" data-name="Path 1093" d="M97.34,369.129l4.565,4.323,1.685-4.365-2.877-3.442Z" transform="translate(-97.34 -365.645)" fill="#f99d8f"/>
                <g id="Group_570" data-name="Group 570" transform="translate(2.797 3.01)">
                  <path id="Path_1094" data-name="Path 1094" d="M70.935,373.4s-.344-.366-1.152-.117-1.2,2.135-.446,3.355c-.425.876-2.363-.3-2.363-.3a4.86,4.86,0,0,0,1.407,4.225c1.21.452,2.52.039,4.311.44,1.3.292,3.038,1.457,4.31,1.533,2.356.142,4.414-.221,5.266-1.593,1.054-1.805-1.744-3.035-4.051-3.23S73.069,375.219,70.935,373.4Z" transform="translate(-66.918 -373.193)" fill="#3838a8"/>
                </g>
                <path id="Path_1095" data-name="Path 1095" d="M71.9,388.661c1.3.291,3.038,1.456,4.31,1.533,2.356.142,4.414-.221,5.266-1.593a1.682,1.682,0,0,0,.2-.5,1.362,1.362,0,0,1,.175,1.724c-.852,1.372-2.91,1.735-5.266,1.593-1.272-.076-3.007-1.241-4.31-1.533-1.791-.4-3.1.012-4.311-.44a4.542,4.542,0,0,1-1.046-1.478C68.15,388.578,70.111,388.26,71.9,388.661Z" transform="translate(-63.704 -379.065)" fill="#fff"/>
              </g>
              <path id="Path_1096" data-name="Path 1096" d="M112.177,296s16.777-1.507,21.887-.515,20.481,25.884,22.8,28.656a10.26,10.26,0,0,1-3.842,3.329s-9.094-8.371-13.424-13.059-5.557-8.636-6.149-8.675-14.722,1.357-22.855,2.9-8.411-10.023-8.411-10.023Z" transform="translate(-102.18 -295.145)" fill="#2d2d9b"/>
            </g>
            <g id="Group_575" data-name="Group 575" transform="translate(5.847 49.159)">
              <g id="Group_574" data-name="Group 574" transform="translate(44.325 34.195)">
                <path id="Path_1097" data-name="Path 1097" d="M131.521,395.141l3.316,5.34,2.738-3.793-1.908-4.061Z" transform="translate(-131.521 -392.628)" fill="#f99d8f"/>
                <g id="Group_573" data-name="Group 573" transform="translate(1.948 3.106)">
                  <path id="Path_1098" data-name="Path 1098" d="M110.88,401.3a1.935,1.935,0,0,0-1.443-.875c-.845.035-1.936,2.288-1.513,3.66-.634.739-1.62-.949-1.62-.949a6.458,6.458,0,0,0,.768,4.61c3.246,2.287,10.179,6.264,12.854,3.731,1.478-1.478-.915-3.379-3.1-4.153S112.481,403.6,110.88,401.3Z" transform="translate(-106.168 -400.419)" fill="#3838a8"/>
                  <path id="Path_1099" data-name="Path 1099" d="M106.233,414.34c3.245,2.288,10.465,6.783,13.14,4.249a1.439,1.439,0,0,0,.45-.862,1.445,1.445,0,0,1-.063,2.048c-2.675,2.534-9.608-1.444-12.854-3.731a5.885,5.885,0,0,1-.738-1.818C106.191,414.263,106.209,414.3,106.233,414.34Z" transform="translate(-106.004 -408.722)" fill="#fff"/>
                </g>
              </g>
              <path id="Path_1100" data-name="Path 1100" d="M144.225,306.855s16.768,1.6,21.609,3.515,15.427,28.733,17.4,31.54c-3.076,1.725-5.173,2.779-5.173,2.779s-6.872-9.3-10.267-14.7-3.876-9.51-4.451-9.657-14.721-1.37-23-1.345-6.426-11.4-6.426-11.4Z" transform="translate(-133.741 -306.855)" fill="#3838a8"/>
            </g>
            <g id="Group_576" data-name="Group 576" transform="translate(0 13.174)">
              <path id="Path_1101" data-name="Path 1101" d="M191.332,225.257a103.33,103.33,0,0,1,9.219,12.662c3.285,5.724,1.962,14.031,1.118,16.19-2.628,2.252-5.3-.987-5.3-.987s.4-6.1.244-8.235-4.223-7.492-4.223-7.492S191.757,226.813,191.332,225.257Z" transform="translate(-170.278 -221.802)" fill="#f8f5ff"/>
              <path id="Path_1102" data-name="Path 1102" d="M222.963,216.955s4.349,2.152,5.85,3.09c1.5,3.942.344,11.327,1.658,16.207s3.121,11.979,3.121,11.979-8.454,8.295-20.561,6.136c-1.971-5.444.077-15.732.077-15.732l-5.35-7.884v-5.631l8.737-8.53Z" transform="translate(-207.758 -216.591)" fill="#f8f5ff"/>
              <path id="Path_1103" data-name="Path 1103" d="M241.364,220.556a1.844,1.844,0,0,0,.553,1.245,1.844,1.844,0,0,1-.957,2.738c-1.428.624-4.967.265-6.09-.993s1.225-4.782,1.225-4.782Z" transform="translate(-227.084 -217.898)" fill="#f2887c"/>
            </g>
            <g id="Group_587" data-name="Group 587" transform="translate(4.103)">
              <g id="Group_578" data-name="Group 578" transform="translate(12.773 9.107)">
                <g id="Group_577" data-name="Group 577" transform="translate(0 0)">
                  <rect id="Rectangle_180" data-name="Rectangle 180" width="1.114" height="0.282" transform="matrix(-0.987, -0.163, 0.163, -0.987, 1.099, 0.459)" fill="#3d2873"/>
                </g>
              </g>
              <path id="Path_1104" data-name="Path 1104" d="M238.822,192.753s1.5,3.731,1.5,5.772-.59,5.726-1.613,6.133c-2.837,1.126-6.617-.4-8.588-3.918-1.69-3.238.346-6.367,1.4-7.282S238.306,191.346,238.822,192.753Z" transform="translate(-227.251 -188.694)" fill="#f99d8f"/>
              <path id="Path_1105" data-name="Path 1105" d="M242.636,191.14s.011-.057.027-.157c.114-.72.5-3.7-.736-4.5-.352-2.323-5.472-3.855-8.639-2.307s-4.359,4.189-2.483,9.707c1.115,3.282,3.171,3.38,3.171,3.38a13.357,13.357,0,0,1-1.616-3.029c-.308-.993,1.079-.959,1.713-.149a3.469,3.469,0,0,1,.54,2.091h.7a25.463,25.463,0,0,0-.106-3.062c-.14-.6,1.179-.71.475-1.731,2.746.217,2.5-1.768,2.5-1.768s-.831,1.591-1.464,1.732c1.43-.2,3.653-1.239,4.075-2.506a2.559,2.559,0,0,1-.844,1.715s2.028-.7,2.07-1.456" transform="translate(-229.91 -183.545)" fill="#3d2873"/>
              <g id="Group_586" data-name="Group 586" transform="translate(4.581 7.815)">
                <g id="Group_580" data-name="Group 580" transform="translate(6.255)">
                  <g id="Group_579" data-name="Group 579" transform="translate(0)">
                    <path id="Path_1106" data-name="Path 1106" d="M228.585,207.219a2.088,2.088,0,1,0-1.619-2.034A1.865,1.865,0,0,0,228.585,207.219Zm0-3.788a1.818,1.818,0,1,1-1.337,1.753A1.59,1.59,0,0,1,228.585,203.431Z" transform="translate(-226.966 -203.149)" fill="#3d2873"/>
                  </g>
                </g>
                <g id="Group_582" data-name="Group 582" transform="translate(2.422 1.289)">
                  <g id="Group_581" data-name="Group 581">
                    <path id="Path_1107" data-name="Path 1107" d="M238.2,210.453a2.088,2.088,0,1,0-1.619-2.035A1.865,1.865,0,0,0,238.2,210.453Zm0-3.788a1.818,1.818,0,1,1-1.337,1.753A1.59,1.59,0,0,1,238.2,206.665Z" transform="translate(-236.578 -206.383)" fill="#3d2873"/>
                  </g>
                </g>
                <g id="Group_584" data-name="Group 584" transform="translate(5.245 1.894)">
                  <g id="Group_583" data-name="Group 583">
                    <path id="Path_1108" data-name="Path 1108" d="M234.911,208.524a1.58,1.58,0,0,1,.962-.343l.006-.281a1.848,1.848,0,0,0-1.154.413Z" transform="translate(-234.726 -207.9)" fill="#3d2873"/>
                  </g>
                </g>
                <g id="Group_585" data-name="Group 585" transform="translate(0 2.583)">
                  <rect id="Rectangle_181" data-name="Rectangle 181" width="2.601" height="0.282" transform="matrix(-0.973, -0.232, 0.232, -0.973, 2.53, 0.879)" fill="#3d2873"/>
                </g>
              </g>
            </g>
          </g>
          <g id="Group_601" data-name="Group 601" transform="translate(0 3.938)">
            <g id="Group_596" data-name="Group 596" transform="translate(0 40.784)">
              <g id="Group_593" data-name="Group 593">
                <g id="Group_592" data-name="Group 592" transform="translate(0 40.572)">
                  <path id="Path_1109" data-name="Path 1109" d="M300.328,397.5l-3.4,1.9,1.262,3.076,4.091-1.7Z" transform="translate(-291.796 -397.496)" fill="#f99d8f"/>
                  <path id="Path_1110" data-name="Path 1110" d="M301.487,403.554l2.405,7.309,6.07,1.823s1.227-2.949-2.591-3.862c-.792-.253-1.337-2.773.912-3.244a36.156,36.156,0,0,0-1.574-4.1S303.209,401.435,301.487,403.554Z" transform="translate(-301.487 -399.891)" fill="#d356d6"/>
                  <path id="Path_1111" data-name="Path 1111" d="M302.789,420l-1.3,2.7,3.746,1.125S306.427,420.949,302.789,420Z" transform="translate(-296.761 -411.026)" fill="#fff"/>
                  <g id="Group_591" data-name="Group 591" transform="translate(0 3.127)">
                    <g id="Group_590" data-name="Group 590">
                      <g id="Group_589" data-name="Group 589">
                        <path id="Path_1112" data-name="Path 1112" d="M304.336,412.354l-2.308-7.013a4.34,4.34,0,0,0-.531.535l2.405,7.309,6.07,1.823a3.006,3.006,0,0,0,.183-.906Z" transform="translate(-301.498 -405.341)" fill="#fff"/>
                      </g>
                    </g>
                  </g>
                </g>
                <path id="Path_1113" data-name="Path 1113" d="M239.041,295.727a18.745,18.745,0,0,0-3.312,4.351c-1.447,2.639-4.062,12.318-1.2,13.863a45.531,45.531,0,0,1,12.968,11.3,67.322,67.322,0,0,0-19.546,11.273,19.13,19.13,0,0,0,1.72,3.616s18.4-6.465,22.977-9.322,7.166-5.667,4.247-10.66-12.245-15.18-11.028-21.366C243.962,295.831,239.041,295.727,239.041,295.727Z" transform="translate(-220.15 -295.727)" fill="#5d5ad1"/>
              </g>
              <g id="Group_595" data-name="Group 595" transform="translate(10.792 2.279)">
                <g id="Group_594" data-name="Group 594" transform="translate(3.805 42.235)">
                  <path id="Path_1114" data-name="Path 1114" d="M266.387,407.384l-3.112,3.3,2.765,2.8,3.511-3.719Z" transform="translate(-260.252 -407.384)" fill="#f99d8f"/>
                  <path id="Path_1115" data-name="Path 1115" d="M256.879,416.729l10.827,10.223a3.764,3.764,0,0,0-.017-5.136c-2.322-2.748-4.3-4.309-3.869-4.868s.553-.746.553-.746l-3.913-3.694S256.712,415.457,256.879,416.729Z" transform="translate(-256.873 -410.465)" fill="#d356d6"/>
                  <path id="Path_1116" data-name="Path 1116" d="M260.213,434.623c-.242-.286-.479-.557-.711-.818l-2.629,2.785,3.357,3.169A3.764,3.764,0,0,0,260.213,434.623Z" transform="translate(-249.397 -423.272)" fill="#fff"/>
                  <path id="Path_1117" data-name="Path 1117" d="M258.3,420.276a1.826,1.826,0,0,0-.44,1.125l10.827,10.223a4.064,4.064,0,0,0,.628-.946Z" transform="translate(-257.856 -415.136)" fill="#fff"/>
                </g>
                <path id="Path_1118" data-name="Path 1118" d="M211.812,302.431a12.053,12.053,0,0,0-2.581,5.191c-.563,2.956.286,10.887,8.707,11.731S233.82,327.1,233.82,327.1A67.328,67.328,0,0,0,218.7,343.849a19.136,19.136,0,0,0,2.752,2.909s15.508-11.825,18.981-15.954,5.068-7.6.751-11.45-16.33-10.663-17.081-16.922C221.385,300.207,211.812,302.431,211.812,302.431Z" transform="translate(-209.094 -301.443)" fill="#786de2"/>
              </g>
            </g>
            <path id="Path_1119" data-name="Path 1119" d="M259.448,205.494a14.07,14.07,0,0,1,1.044,1.659c.43.832,2,1.113,2.422,1.312s-.035,1.027-.686,1.379c.106.651.4.8.4.8l-.026.4-.911.334s.915-.157.827.281c-.045.225-.2.338-.358.637s.1,1.2.147,1.713-.5.845-1.515.751-2.38.469-3.295,2.628A15.879,15.879,0,0,0,256.439,222l-3.73-1.17s-.774-11.007,0-12.7S259.448,205.494,259.448,205.494Z" transform="translate(-234.832 -200.682)" fill="#f9a49b"/>
            <g id="Group_598" data-name="Group 598" transform="translate(11.646 16.698)">
              <path id="Path_1120" data-name="Path 1120" d="M259.48,235.31s3.483,4.318,6.434,4.411c2.67.376,4.359,2.628,4.359,4.129s-.469,8.165-.563,9.667-.282,8.916.563,10.418c-6.57-1.22-13.105-2.346-15.733,1.69,1.971-5.256,4-7.133,3.063-9.854s-.657-5.725-1.5-8.729-1.314-5.631-.469-8.071S259.48,235.31,259.48,235.31Z" transform="translate(-254.54 -235.31)" fill="#d356d6"/>
              <g id="Group_597" data-name="Group 597" transform="translate(6.788 5.91)">
                <path id="Path_1121" data-name="Path 1121" d="M193.739,291.633s1.463-.854,1.669-1.527a3.59,3.59,0,0,1,1.293-1.666c.287-.1.637.518.229.978s-.425.69-.425.69,3.742-1.652,5.321-.876c.742.6-.643,3.052-2.208,3.692a14.569,14.569,0,0,1-5.106.849C193.678,293.676,193.739,291.633,193.739,291.633Z" transform="translate(-168.848 -273.163)" fill="#f99d8f"/>
                <path id="Path_1122" data-name="Path 1122" d="M199.22,286.192s-2.431-.865-3.96.228-.616,2.886-1.443,3.977c.211,1.056,2.2,1.637,3.5.265s1.855-3.053,2.265-2.917A1.259,1.259,0,0,0,199.22,286.192Z" transform="translate(-166.551 -271.622)" fill="#f99d8f"/>
                <path id="Path_1123" data-name="Path 1123" d="M218.863,254.381a10.67,10.67,0,0,0-2.469-3.716c-1.251-1.124-3.444-.414-4.052,1.69-.985,3.41,5.3,12.11,8.356,14.7,3.309,2.8,11.361,6.182,17.345,4.517a31.166,31.166,0,0,0-.242-3.655A22.421,22.421,0,0,1,225.9,264C222.707,261.883,221.631,258.886,218.863,254.381Z" transform="translate(-212.239 -250.135)" fill="#da6ee0"/>
              </g>
              <path id="Path_1124" data-name="Path 1124" d="M276.094,261.892s2.569-.844,3.027-.423.352.669-.282.986a11.542,11.542,0,0,0,3.1,1.76c1.056.387.486,2.5-1.513,2.851a3.946,3.946,0,0,1-3.743-.938C276.024,265.482,275.5,262.49,276.094,261.892Z" transform="translate(-275.213 -250.969)" fill="#f99d8f"/>
            </g>
            <g id="Group_600" data-name="Group 600" transform="translate(8.354)">
              <path id="Path_1125" data-name="Path 1125" d="M277.052,201.251a6.861,6.861,0,0,0-3.073-2.8c-2.358-.995-8.457-.321-9.729,4.083-.936,3.238.708,2.683,0,5.1-.62,2.112-2.769,6.073-1.473,8.165s-.848,2.847-1.85,4.5a4.777,4.777,0,0,0,.211,4.927c.888,1.361-.5,3.566-.422,5.49.167,3.884,2.661,7.835,4.105,9.662.615-1.611,2.7-2.511,2.371-6.952-.177-2.358-.91-2.437-1.584-5.37-.23-1-.511-3,.616-4.387.449-.552,1.349-.753,3.12-1.783a4.112,4.112,0,0,0,1.53-3.338c-.193-4.029,2.969-2.9,2.655-6.61-.129-1.519-.942-2.778-.379-3.66a3.212,3.212,0,0,0,.4-3.02,3.411,3.411,0,0,1-.133-2.8C273.7,201.853,276.453,201.23,277.052,201.251Z" transform="translate(-260.338 -196.206)" fill="#3b276f"/>
              <g id="Group_599" data-name="Group 599" transform="translate(0.005)">
                <path id="Path_1126" data-name="Path 1126" d="M265.489,196.372s3.52-1.331,5.223-.824-.808,4.585-8.915,7.1-8.881,4.035-10.359,4.739-.985-2.508,2.253-5.259c-.7-3.525.7-7.116,3.238-8.108S263.534,192.953,265.489,196.372Z" transform="translate(-250.644 -193.424)" fill="#b947bf"/>
                <path id="Path_1127" data-name="Path 1127" d="M276.706,196.372s1.316,1.969-5.01,4.083c-5.005,1.672-5.99,1.84-6.788,1.672-.7-3.525.7-7.116,3.238-8.108S274.751,192.953,276.706,196.372Z" transform="translate(-261.861 -193.424)" fill="#d356d6"/>
              </g>
            </g>
          </g>
        </g>
        <g id="Group_608" data-name="Group 608" transform="translate(41.898 117.794)">
          <g id="Group_607" data-name="Group 607" transform="translate(0)">
            <g id="Group_604" data-name="Group 604" transform="translate(0 0.422)">
              <g id="Group_603" data-name="Group 603">
                <path id="Path_1128" data-name="Path 1128" d="M302.143,356.723a.638.638,0,0,0,.668.137l3.461-1.855a.263.263,0,0,0,.124-.27c0-.109.041-.4-.035-.469l-7.189-6.256a.638.638,0,0,0-.668-.137l-3.531,1.517c-.1.052-.071.479-.059.576a.411.411,0,0,0,.143.251Z" transform="translate(-294.902 -347.827)" fill="#4e4baf"/>
              </g>
            </g>
            <g id="Group_606" data-name="Group 606" transform="translate(0.01)">
              <g id="Group_605" data-name="Group 605">
                <path id="Path_1129" data-name="Path 1129" d="M302.14,355.666a.636.636,0,0,0,.668.137l3.461-1.855c.181-.1.174-.316-.014-.488l-7.086-6.507a.639.639,0,0,0-.668-.137l-3.46,1.855c-.181.1-.175.316.013.488Z" transform="translate(-294.909 -346.769)" fill="#8c7ae9"/>
              </g>
            </g>
            <path id="Path_1130" data-name="Path 1130" d="M302.967,356.116l3.737-2-6.56-6.022-3.737,2Z" transform="translate(-295.8 -347.563)" fill="#f8f5ff"/>
            <path id="Path_1131" data-name="Path 1131" d="M314.049,347.594a.169.169,0,0,0,.177.036c.048-.026.046-.083,0-.129a.169.169,0,0,0-.177-.036C314,347.49,314,347.548,314.049,347.594Z" transform="translate(-310.374 -347.18)" fill="#564bbc"/>
            <path id="Path_1132" data-name="Path 1132" d="M314.856,348.008a.1.1,0,0,0,.109.022c.03-.016.029-.051,0-.079a.1.1,0,0,0-.109-.023C314.824,347.943,314.825,347.979,314.856,348.008Z" transform="translate(-311.428 -347.462)" fill="#564bbc"/>
            <path id="Path_1133" data-name="Path 1133" d="M317,349.616a.226.226,0,0,0,.239.049l.792-.425c.065-.034.063-.113,0-.175h0a.228.228,0,0,0-.239-.049l-.791.424c-.065.035-.063.113,0,.175Z" transform="translate(-315.359 -348.111)" fill="#7268d8"/>
          </g>
        </g>
      </g>
      <g id="Group_610" data-name="Group 610" transform="translate(93.018)">
        <path id="Path_1134" data-name="Path 1134" d="M127.312,152.655a3.661,3.661,0,1,0,3.169,4.094A3.661,3.661,0,0,0,127.312,152.655Z" transform="translate(-94.855 -106.887)" fill="#c2e8ed"/>
        <path id="Path_1135" data-name="Path 1135" d="M203.086,37.914a2.322,2.322,0,1,0,2.011,2.6A2.322,2.322,0,0,0,203.086,37.914Z" transform="translate(-200.269 -37.895)" fill="#c2e8ed"/>
        <path id="Path_1136" data-name="Path 1136" d="M205.156,98.138a1.92,1.92,0,1,0,1.662,2.146A1.919,1.919,0,0,0,205.156,98.138Z" transform="translate(-202.994 -74.112)" fill="#c2e8ed"/>
        <path id="Path_1137" data-name="Path 1137" d="M167.709,53.46a7.021,7.021,0,1,0,6.08,7.85A7.021,7.021,0,0,0,167.709,53.46Z" transform="translate(-152.787 -47.221)" fill="#c2e8ed"/>
        <path id="Path_1138" data-name="Path 1138" d="M127.051,111.837a3.848,3.848,0,1,0,3.333,4.3A3.848,3.848,0,0,0,127.051,111.837Z" transform="translate(-94.571 -82.34)" fill="#c2e8ed"/>
        <path id="Path_1139" data-name="Path 1139" d="M119.356,70.326a2.431,2.431,0,1,0,2.105,2.718A2.431,2.431,0,0,0,119.356,70.326Z" transform="translate(-83.205 -57.385)" fill="#c2e8ed"/>
        <path id="Path_1140" data-name="Path 1140" d="M89.333,158.63a2.431,2.431,0,1,0,2.105,2.718A2.431,2.431,0,0,0,89.333,158.63Z" transform="translate(-41.214 -110.486)" fill="#c2e8ed"/>
        <path id="Path_1141" data-name="Path 1141" d="M122.913,229.232a2.431,2.431,0,1,0,2.1,2.718A2.431,2.431,0,0,0,122.913,229.232Z" transform="translate(-88.18 -152.941)" fill="#c2e8ed"/>
      </g>
    </g>
  </g>
</svg>
